{
  "weapons":
  [
  ],
  "wObjects":
  [
    {
      // wid0
      "detectDistance": 0,
      "blowAway": 0,
      "gravity": 0,
      "exploSound": -1,
      "addSpeed": 0,
      "distribution": 0,
      "multSpeed": 1,
      "createOnExp": 0,
      "dirtEffect": -1,
      "wormExplode": false,
      "explGround": false,
      "wormCollide": false,
      "collideWithObjects": false,
      "affectByExplosions": false,
      "bounce": 0,
      "bounceFriction": 0,
      "timeToExplo": 2,
      "timeToExploV": 0,
      "hitDamage": 0,
      "bloodOnHit": 0,
      "startFrame": 40,
      "numFrames": 0,
      "loopAnim": false,
      "shotType": 0,
      "repeat": 1,
      "colorBullets": 0,
      "splinterAmount": 0,
      "splinterColour": 0,
      "splinterType": -1,
      "splinterScatter": 0,
      "objTrailType": -1,
      "objTrailDelay": 0,
      "partTrailType": 0,
      "partTrailObj": -1,
      "partTrailDelay": 0,
      "speed": 0,
      "immutable": true,
      "id": 0,
      "name": "vortex_out",
      "teamImmunity": 0,
      "fixed": true
    },
    {
      // wid1
      "detectDistance": 0,
      "blowAway": 0,
      "gravity": 0,
      "exploSound": -1,
      "addSpeed": 0,
      "distribution": 0,
      "multSpeed": 1,
      "createOnExp": -1,
      "dirtEffect": -1,
      "wormExplode": false,
      "explGround": false,
      "wormCollide": false,
      "collideWithObjects": false,
      "affectByExplosions": false,
      "bounce": 0,
      "bounceFriction": 0,
      "timeToExplo": 2,
      "timeToExploV": 0,
      "hitDamage": 0,
      "bloodOnHit": 0,
      "startFrame": 40,
      "numFrames": 0,
      "loopAnim": false,
      "shotType": 0,
      "repeat": 1,
      "colorBullets": 0,
      "splinterAmount": 1,
      "splinterColour": 0,
      "splinterType": 2,
      "splinterScatter": 0,
      "objTrailType": -1,
      "objTrailDelay": 0,
      "partTrailType": 0,
      "partTrailObj": -1,
      "partTrailDelay": 0,
      "speed": 0,
      "immutable": true,
      "id": 1,
      "name": "vortex_in",
      "teamImmunity": 0,
      "fixed": true
    },
    {
      // wid2
      "detectDistance": 0,
      "blowAway": 0,
      "gravity": 0,
      "exploSound": -1,
      "addSpeed": 0,
      "distribution": 0,
      "multSpeed": 0,
      "createOnExp": -1,
      "dirtEffect": -1,
      "wormExplode": true,
      "explGround": true,
      "wormCollide": true,
      "collideWithObjects": false,
      "affectByExplosions": false,
      "bounce": 0,
      "bounceFriction": 0,
      "timeToExplo": 1,
      "timeToExploV": 0,
      "hitDamage": 0,
      "bloodOnHit": 0,
      "startFrame": -1,
      "numFrames": 0,
      "loopAnim": false,
      "shotType": 0,
      "repeat": 1,
      "colorBullets": 0,
      "splinterAmount": 1,
      "splinterColour": 0,
      "splinterType": 3,
      "splinterScatter": 0,
      "objTrailType": -1,
      "objTrailDelay": 0,
      "partTrailType": 0,
      "partTrailObj": -1,
      "partTrailDelay": 0,
      "speed": 0,
      "immutable": true,
      "id": 2,
      "name": "death_vortex",
      "teamImmunity": 0,
      "fixed": true
    },
    {
      // wid3
      "detectDistance": 0,
      "blowAway": 0,
      "gravity": 0,
      "exploSound": -1,
      "addSpeed": 0,
      "distribution": 0,
      "multSpeed": 1,
      "createOnExp": -1,
      "dirtEffect": -1,
      "wormExplode": false,
      "explGround": false,
      "wormCollide": false,
      "collideWithObjects": false,
      "affectByExplosions": false,
      "bounce": 0,
      "bounceFriction": 0,
      "timeToExplo": 2,
      "timeToExploV": 0,
      "hitDamage": 0,
      "bloodOnHit": 0,
      "startFrame": 40,
      "numFrames": 0,
      "loopAnim": false,
      "shotType": 0,
      "repeat": 1,
      "colorBullets": 0,
      "splinterAmount": 1,
      "splinterColour": 0,
      "splinterType": 6,
      "splinterScatter": 0,
      "objTrailType": -1,
      "objTrailDelay": 0,
      "partTrailType": 0,
      "partTrailObj": -1,
      "partTrailDelay": 0,
      "speed": 0,
      "immutable": true,
      "id": 3,
      "name": "vortex_in_alt",
      "teamImmunity": 0,
      "fixed": true
    },
    {
      // wid4
      "detectDistance": 0,
      "blowAway": 0,
      "gravity": 0,
      "exploSound": -1,
      "addSpeed": 0,
      "distribution": 0,
      "multSpeed": 1,
      "createOnExp": -1,
      "dirtEffect": -1,
      "wormExplode": false,
      "explGround": false,
      "wormCollide": false,
      "collideWithObjects": false,
      "affectByExplosions": false,
      "bounce": 0,
      "bounceFriction": 0,
      "timeToExplo": 0,
      "timeToExploV": 0,
      "hitDamage": 0,
      "bloodOnHit": 0,
      "startFrame": -1,
      "numFrames": 0,
      "loopAnim": false,
      "shotType": 0,
      "repeat": 1,
      "colorBullets": 0,
      "splinterAmount": 0,
      "splinterColour": 0,
      "splinterType": -1,
      "splinterScatter": 0,
      "objTrailType": 3,
      "objTrailDelay": 15,
      "partTrailType": 0,
      "partTrailObj": -1,
      "partTrailDelay": 0,
      "speed": 0,
      "immutable": true,
      "id": 4,
      "name": "manson_teleport",
      "teamImmunity": 0,
      "fixed": true,
      "behavior": 0
    },
  ],
  "nObjects":
  [
    {
      // nid0 splinterType for nid1
      "detectDistance": 0,
      "gravity": 0,
      "speed": 0,
      "speedV": 0,
      "distribution": 0,
      "blowAway": 0,
      "bounce": 0,
      "hitDamage": 0,
      "wormExplode": false,
      "explGround": false,
      "wormDestroy": false,
      "bloodOnHit": 0,
      "startFrame": 0,
      "numFrames": 0,
      "drawOnMap": false,
      "colorBullets": 0,
      "createOnExp": -1,
      "affectByExplosions": false,
      "dirtEffect": -1,
      "splinterAmount": 1,
      "splinterColour": 0,
      "splinterType": 2,
      "bloodTrail": false,
      "bloodTrailDelay": 0,
      "leaveObj": -1,
      "leaveObjDelay": 0,
      "timeToExplo": 15,
      "timeToExploV": 0,
      "immutable": true,
      "id": 0,
      "name": "nid 0",
      "teamImmunity": 0
    },
    {
      // nid1 splinterType for nid2
      "detectDistance": 0,
      "gravity": 0,
      "speed": 0,
      "speedV": 0,
      "distribution": 0,
      "blowAway": 0,
      "bounce": 0,
      "hitDamage": 0,
      "wormExplode": false,
      "explGround": false,
      "wormDestroy": false,
      "bloodOnHit": 0,
      "startFrame": 0,
      "numFrames": 0,
      "drawOnMap": false,
      "colorBullets": 0,
      "createOnExp": 2,
      "affectByExplosions": false,
      "dirtEffect": -1,
      "splinterAmount": 1,
      "splinterColour": 0,
      "splinterType": 0,
      "bloodTrail": false,
      "bloodTrailDelay": 0,
      "leaveObj": -1,
      "leaveObjDelay": 0,
      "timeToExplo": 55,
      "timeToExploV": 0,
      "immutable": true,
      "id": 1,
      "name": "nid 1",
      "teamImmunity": 0
    },
    {
      // nid2 splinterType for wid1 splinterType for nid0
      "detectDistance": 8,
      "gravity": 0,
      "speed": 0,
      "speedV": 0,
      "distribution": 0,
      "blowAway": 0,
      "bounce": 0,
      "hitDamage": 0.00001,
      "wormExplode": true,
      "explGround": false,
      "wormDestroy": true,
      "bloodOnHit": 0,
      "startFrame": 0,
      "numFrames": 0,
      "drawOnMap": false,
      "colorBullets": 0,
      "createOnExp": 1,
      "affectByExplosions": false,
      "dirtEffect": -1,
      "splinterAmount": 1,
      "splinterColour": 0,
      "splinterType": 1,
      "bloodTrail": false,
      "bloodTrailDelay": 0,
      "leaveObj": 3,
      "leaveObjDelay": 15,
      "timeToExplo": 0,
      "timeToExploV": 0,
      "immutable": true,
      "id": 2,
      "name": "nid 2",
      "teamImmunity": 0
    },
    {
      // nid3 splinterType for wid2 splinterType for nid5
      "detectDistance": 4,
      "gravity": 0,
      "speed": 0,
      "speedV": 0,
      "distribution": 0,
      "blowAway": 0,
      "bounce": 0,
      "hitDamage": 0.00001,
      "wormExplode": true,
      "explGround": false,
      "wormDestroy": true,
      "bloodOnHit": 0,
      "startFrame": 0,
      "numFrames": 0,
      "drawOnMap": false,
      "colorBullets": 0,
      "createOnExp": 5,
      "affectByExplosions": false,
      "dirtEffect": -1,
      "splinterAmount": 1,
      "splinterColour": 0,
      "splinterType": 4,
      "bloodTrail": false,
      "bloodTrailDelay": 0,
      "leaveObj": 3,
      "leaveObjDelay": 15,
      "timeToExplo": 0,
      "timeToExploV": 0,
      "immutable": true,
      "id": 3,
      "name": "nid 3",
      "teamImmunity": 0,
    },
    {
      // nid4 splinterType for nid3
      "detectDistance": 0,
      "gravity": 0,
      "speed": 0,
      "speedV": 0,
      "distribution": 0,
      "blowAway": 0,
      "bounce": 0,
      "hitDamage": 0,
      "wormExplode": false,
      "explGround": false,
      "wormDestroy": false,
      "bloodOnHit": 0,
      "startFrame": 0,
      "numFrames": 0,
      "drawOnMap": false,
      "colorBullets": 0,
      "createOnExp": 1,
      "affectByExplosions": false,
      "dirtEffect": 1,
      "splinterAmount": 1,
      "splinterColour": 0,
      "splinterType": 5,
      "bloodTrail": false,
      "bloodTrailDelay": 0,
      "leaveObj": 4,
      "leaveObjDelay": 1,
      "timeToExplo": 270,
      "timeToExploV": 0,
      "immutable": true,
      "id": 4,
      "name": "nid 4",
      "teamImmunity": 0,
    },
    {
      // nid5 splinterType for nid4
      "detectDistance": 0,
      "gravity": 0,
      "speed": 0,
      "speedV": 0,
      "distribution": 0,
      "blowAway": 0,
      "bounce": 0,
      "hitDamage": 0,
      "wormExplode": false,
      "explGround": false,
      "wormDestroy": false,
      "bloodOnHit": 0,
      "startFrame": 0,
      "numFrames": 0,
      "drawOnMap": false,
      "colorBullets": 0,
      "createOnExp": -1,
      "affectByExplosions": false,
      "dirtEffect": -1,
      "splinterAmount": 1,
      "splinterColour": 0,
      "splinterType": 3,
      "bloodTrail": false,
      "bloodTrailDelay": 0,
      "leaveObj": -1,
      "leaveObjDelay": 0,
      "timeToExplo": 35,
      "timeToExploV": 0,
      "immutable": true,
      "id": 5,
      "name": "nid 5",
      "teamImmunity": 0,
    },
    {
      // nid6 splinterType for wid3
      "detectDistance": 8,
      "gravity": 0,
      "speed": 0,
      "speedV": 0,
      "distribution": 0,
      "blowAway": 0,
      "bounce": 0,
      "hitDamage": 0.00001,
      "wormExplode": true,
      "explGround": false,
      "wormDestroy": true,
      "bloodOnHit": 0,
      "startFrame": 0,
      "numFrames": 0,
      "drawOnMap": false,
      "colorBullets": 0,
      "createOnExp": 0,
      "affectByExplosions": false,
      "dirtEffect": -1,
      "splinterAmount": 1,
      "splinterColour": 0,
      "splinterType": 7,
      "bloodTrail": false,
      "bloodTrailDelay": 0,
      "leaveObj": -1,
      "leaveObjDelay": 0,
      "timeToExplo": 0,
      "timeToExploV": 0,
      "immutable": true,
      "id": 6,
      "name": "nid 6",
      "teamImmunity": 0
    },
    {
      // nid7 splinterType for nid6
      "detectDistance": 0,
      "gravity": 0,
      "speed": 0,
      "speedV": 0,
      "distribution": 0,
      "blowAway": 0,
      "bounce": 0,
      "hitDamage": 0,
      "wormExplode": false,
      "explGround": false,
      "wormDestroy": false,
      "bloodOnHit": 0,
      "startFrame": 0,
      "numFrames": 0,
      "drawOnMap": false,
      "colorBullets": 0,
      "createOnExp": -1,
      "affectByExplosions": false,
      "dirtEffect": -1,
      "splinterAmount": 1,
      "splinterColour": 0,
      "splinterType": 6,
      "bloodTrail": false,
      "bloodTrailDelay": 0,
      "leaveObj": -1,
      "leaveObjDelay": 0,
      "timeToExplo": 55,
      "timeToExploV": 0,
      "immutable": true,
      "id": 7,
      "name": "nid 7",
      "teamImmunity": 0
    },
    {
      // nid8
      "detectDistance": 0,
      "gravity": 0,
      "speed": 0,
      "speedV": 0,
      "distribution": 0,
      "blowAway": 0,
      "bounce": 0,
      "hitDamage": 0,
      "wormExplode": false,
      "explGround": false,
      "wormDestroy": false,
      "bloodOnHit": 0,
      "startFrame": 40,
      "numFrames": 0,
      "drawOnMap": false,
      "colorBullets": 0,
      "createOnExp": 0,
      "affectByExplosions": false,
      "dirtEffect": -1,
      "splinterAmount": 0,
      "splinterColour": 0,
      "splinterType": -1,
      "bloodTrail": false,
      "bloodTrailDelay": 0,
      "leaveObj": -1,
      "leaveObjDelay": 0,
      "timeToExplo": 2,
      "timeToExploV": 0,
      "immutable": true,
      "id": 8,
      "name": "nid 8",
      "teamImmunity": 0
    },
  ],
  "sObjects":
  [
    {
      // sid0 createOnExp for wid0
      "startSound": -1,
      "numSounds": 0,
      "animDelay": 1,
      "startFrame": 0,
      "numFrames": 39,
      "detectRange": 0,
      "damage": 0,
      "blowAway": 0,
      "shadow": true,
      "shake": 0,
      "flash": 0,
      "dirtEffect": -1,
      "id": 0,
      "name": "sid 0"
    },
    {
      // sid1 createOnExp for nid2
      "startSound": 15,
      "numSounds": 0,
      "animDelay": 6,
      "startFrame": 41,
      "numFrames": 5,
      "detectRange": 0,
      "damage": 0,
      "blowAway": 0,
      "shadow": true,
      "shake": 0,
      "flash": 0,
      "dirtEffect": -1,
      "id": 1,
      "name": "sid 1"
    },
    {
      // sid2 createOnExp for nid1
      "startSound": 15,
      "numSounds": 0,
      "animDelay": 2,
      "startFrame": 0,
      "numFrames": 14,
      "detectRange": 0,
      "damage": 0,
      "blowAway": 0,
      "shadow": true,
      "shake": 0,
      "flash": 0,
      "dirtEffect": -1,
      "id": 2,
      "name": "sid 2"
    },
    {
      // sid3
      "startSound": -1,
      "numSounds": 0,
      "animDelay": 2,
      "startFrame": 9,
      "numFrames": 27,
      "detectRange": 0,
      "damage": 0,
      "blowAway": 0,
      "shadow": true,
      "shake": 0,
      "flash": 0,
      "dirtEffect": -1,
      "id": 3,
      "name": "sid 3"
    },
    {
      // sid4
      "startSound": -1,
      "numSounds": 0,
      "animDelay": 1,
      "startFrame": 40,
      "numFrames": 0,
      "detectRange": 10,
      "damage": 0.5,
      "blowAway": -0.042,
      "shadow": false,
      "shake": 0,
      "flash": 0,
      "dirtEffect": 0,
      "id": 4,
      "name": "sid 4",
    },
    {
      // sid5 createOnExp for nid3
      "startSound": 30,
      "numSounds": 0,
      "animDelay": 15,
      "startFrame": 13,
      "numFrames": 17,
      "detectRange": 0,
      "damage": 0,
      "blowAway": 0,
      "shadow": true,
      "shake": 0,
      "flash": 0,
      "dirtEffect": -1,
      "id": 5,
      "name": "sid 5",
    },    
  ],
  "constants":
  {
  },
  "textures":
  [
    {
      "nDrawBack": false,
      "mFrame": 47,
      "sFrame": 50,
      "rFrame": 2,
      "id": 0,
      "name": "tid 0"
    },
    {
      "nDrawBack": true,
      "mFrame": 47,
      "sFrame": 48,
      "rFrame": 2,
      "id": 1,
      "name": "tid 1"
    }    
  ],
  "behaviors": 
  [
    {
      "id": 0,
      "name": "multiple teleports",
      "update": "/** teleport the worm to randomized coordinates on the map **/\nlet x = this.x, y = this.y;\nconst spawnpointsX = [180,250,320];\nconst spawnpointsY = [50,120,190,290];\napi.getPlayers().forEach(p=>{\n    let dist = (p.x - x) * (p.x - x) + (p.y - y) * (p.y - y);\n    if(dist < 250){\np.x=spawnpointsX[Math.round(api.random()%spawnpointsX.length)];\np.y=spawnpointsY[Math.round(api.random()%spawnpointsY.length)];\napi.createBlood(1, p.x, p.y, 0, 0, NID_8);\n    }\n});"
    }
  ],
  "colorAnim":
  [
  ],
  "textSpritesStartIdx": "",
  "crossHairSprite": "",
  "name": "$teleport_46",
  "author": "",
  "version": ""
}
