{
  "weapons": [],
  "wObjects":
  [
    {
      // wid0
      "detectDistance": 0,
      "blowAway": 0,
      "gravity": 0,
      "exploSound": -1,
      "addSpeed": 0,
      "distribution": 0,
      "multSpeed": 1,
      "createOnExp": -1,
      "dirtEffect": -1,
      "wormExplode": false,
      "explGround": false,
      "wormCollide": false,
      "collideWithObjects": false,
      "affectByExplosions": false,
      "bounce": -1,
      "bounceFriction": -1,
      "timeToExplo": 0,
      "timeToExploV": 0,
      "hitDamage": 0,
      "bloodOnHit": 0,
      "startFrame": -1,
      "numFrames": 0,
      "loopAnim": false,
      "shotType": 0,
      "repeat": 1,
      "colorBullets": 0,
      "splinterAmount": 0,
      "splinterColour": 0,
      "splinterType": -1,
      "splinterScatter": 0,
      "objTrailType": -1,
      "objTrailDelay": 0,
      "partTrailType": 0,
      "partTrailObj": -1,
      "partTrailDelay": 0,
      "speed": 0,
      "immutable": true,
      "name": "peacemaker",
      "id": 0,
      "behavior": 0
    },
    {
      // wid1
      "detectDistance": 1,
      "blowAway": 0,
      "gravity": 0.09,
      "exploSound": -1,
      "addSpeed": 0,
      "distribution": 0,
      "multSpeed": 1,
      "createOnExp": -1,
      "dirtEffect": -1,
      "wormExplode": false,
      "explGround": false,
      "wormCollide": false,
      "collideWithObjects": false,
      "affectByExplosions": false,
      "bounce": 0,
      "bounceFriction": 0,
      "timeToExplo": 0,
      "timeToExploV": 0,
      "hitDamage": 0,
      "bloodOnHit": 0,
      "startFrame": 4,
      "numFrames": 2,
      "loopAnim": false,
      "shotType": 0,
      "repeat": 1,
      "colorBullets": 0,
      "splinterAmount": 0,
      "splinterColour": 0,
      "splinterType": -1,
      "splinterScatter": 0,
      "objTrailType": -1,
      "objTrailDelay": 0,
      "partTrailType": 0,
      "partTrailObj": -1,
      "partTrailDelay": 0,
      "speed": 100,
      "immutable": true,
      "name": "minigun",
      "id": 1,
      "behavior": 3
    },
    {
      // wid2
      "detectDistance": 1,
      "blowAway": 0,
      "gravity": 0.09,
      "exploSound": -1,
      "addSpeed": 0,
      "distribution": 0,
      "multSpeed": 1,
      "createOnExp": -1,
      "dirtEffect": -1,
      "wormExplode": false,
      "explGround": false,
      "wormCollide": false,
      "collideWithObjects": false,
      "affectByExplosions": false,
      "bounce": 0,
      "bounceFriction": 0,
      "timeToExplo": 0,
      "timeToExploV": 0,
      "hitDamage": 0,
      "bloodOnHit": 0,
      "startFrame": 4,
      "numFrames": 2,
      "loopAnim": false,
      "shotType": 0,
      "repeat": 1,
      "colorBullets": 0,
      "splinterAmount": 0,
      "splinterColour": 0,
      "splinterType": -1,
      "splinterScatter": 0,
      "objTrailType": -1,
      "objTrailDelay": 0,
      "partTrailType": 0,
      "partTrailObj": -1,
      "partTrailDelay": 0,
      "speed": 100,
      "immutable": true,
      "name": "minigun_old",
      "id": 2,
      "behavior": 1,
      "teamImmunity": 0
    },
    {
      // wid3
      "detectDistance": 1,
      "blowAway": 0,
      "gravity": 0,
      "exploSound": -1,
      "addSpeed": 0,
      "distribution": 0.1,
      "multSpeed": 1,
      "createOnExp": 1,
      "dirtEffect": -1,
      "wormExplode": false,
      "explGround": true,
      "wormCollide": true,
      "collideWithObjects": false,
      "affectByExplosions": false,
      "bounce": 0,
      "bounceFriction": 0.8,
      "timeToExplo": 120,
      "timeToExploV": 0,
      "hitDamage": 0,
      "bloodOnHit": 0,
      "startFrame": -1,
      "numFrames": 0,
      "loopAnim": false,
      "shotType": 0,
      "repeat": 4,
      "colorBullets": "68",
      "splinterAmount": 0,
      "splinterColour": 0,
      "splinterType": -1,
      "splinterScatter": 0,
      "objTrailType": 0,
      "objTrailDelay": 6,
      "partTrailType": 1,
      "partTrailObj": 0,
      "partTrailDelay": 6,
      "speed": 490,
      "immutable": false,
      "name": "universal_bullet",
      "id": 3,
      "behavior": 2
    },
    {
      // wid4
      "detectDistance": 1,
      "blowAway": 0,
      "gravity": 0,
      "exploSound": -1,
      "addSpeed": 0,
      "distribution": 0.1,
      "multSpeed": 1,
      "createOnExp": 1,
      "dirtEffect": -1,
      "wormExplode": false,
      "explGround": true,
      "wormCollide": true,
      "collideWithObjects": false,
      "affectByExplosions": false,
      "bounce": 0,
      "bounceFriction": 0.8,
      "timeToExplo": 120,
      "timeToExploV": 0,
      "hitDamage": 3,
      "bloodOnHit": 3,
      "startFrame": -1,
      "numFrames": 0,
      "loopAnim": false,
      "shotType": 0,
      "repeat": 4,
      "colorBullets": "68",
      "splinterAmount": 0,
      "splinterColour": 0,
      "splinterType": -1,
      "splinterScatter": 0,
      "objTrailType": 0,
      "objTrailDelay": 6,
      "partTrailType": 1,
      "partTrailObj": 0,
      "partTrailDelay": 6,
      "speed": 490,
      "immutable": false,
      "name": "bullet green",
      "id": 4,
      "behavior": -1,
      "teamImmunity": 1
    },
    {
      // wid5
      "detectDistance": 1,
      "blowAway": 0,
      "gravity": 0,
      "exploSound": -1,
      "addSpeed": 0,
      "distribution": 0.1,
      "multSpeed": 1,
      "createOnExp": 1,
      "dirtEffect": -1,
      "wormExplode": false,
      "explGround": true,
      "wormCollide": true,
      "collideWithObjects": false,
      "affectByExplosions": false,
      "bounce": 0,
      "bounceFriction": 0.8,
      "timeToExplo": 120,
      "timeToExploV": 0,
      "hitDamage": 3,
      "bloodOnHit": 3,
      "startFrame": -1,
      "numFrames": 0,
      "loopAnim": false,
      "shotType": 0,
      "repeat": 4,
      "colorBullets": "68",
      "splinterAmount": 0,
      "splinterColour": 0,
      "splinterType": -1,
      "splinterScatter": 0,
      "objTrailType": 0,
      "objTrailDelay": 6,
      "partTrailType": 1,
      "partTrailObj": 0,
      "partTrailDelay": 6,
      "speed": 490,
      "immutable": false,
      "name": "bullet blue",
      "id": 5,
      "behavior": -1,
      "teamImmunity": 2
    },
    {
      // wid6
      "detectDistance": 1,
      "blowAway": 0,
      "gravity": 0.09,
      "exploSound": -1,
      "addSpeed": 0,
      "distribution": 0,
      "multSpeed": 1,
      "createOnExp": -1,
      "dirtEffect": -1,
      "wormExplode": false,
      "explGround": false,
      "wormCollide": false,
      "collideWithObjects": false,
      "affectByExplosions": false,
      "bounce": 0,
      "bounceFriction": 0,
      "timeToExplo": 0,
      "timeToExploV": 0,
      "hitDamage": 0,
      "bloodOnHit": 0,
      "startFrame": 4,
      "numFrames": 2,
      "loopAnim": false,
      "shotType": 0,
      "repeat": 1,
      "colorBullets": 0,
      "splinterAmount": 0,
      "splinterColour": 0,
      "splinterType": -1,
      "splinterScatter": 0,
      "objTrailType": -1,
      "objTrailDelay": 0,
      "partTrailType": 0,
      "partTrailObj": -1,
      "partTrailDelay": 0,
      "speed": 100,
      "immutable": true,
      "name": "minigun_tid",
      "id": 6,
      "behavior": 4
    }
  ],
  "nObjects": [
    {
      // nid0 partTrailObj for wid2
      "detectDistance": 0,
      "gravity": 0,
      "speed": 0,
      "speedV": 0,
      "distribution": 0,
      "blowAway": 0,
      "bounce": 0,
      "hitDamage": 0,
      "wormExplode": false,
      "explGround": false,
      "wormDestroy": false,
      "bloodOnHit": 0,
      "startFrame": -1,
      "numFrames": 0,
      "drawOnMap": false,
      "colorBullets": 0,
      "createOnExp": -1,
      "affectByExplosions": false,
      "dirtEffect": -1,
      "splinterAmount": 0,
      "splinterColour": 0,
      "splinterType": -1,
      "bloodTrail": false,
      "bloodTrailDelay": 0,
      "leaveObj": 0,
      "leaveObjDelay": 1,
      "timeToExplo": 1,
      "timeToExploV": 0,
      "immutable": false,
      "id": 0,
      "name": "nid 0"
    },
    {
      // nid1
      "detectDistance": 0,
      "gravity": 0,
      "speed": 0,
      "speedV": 0,
      "distribution": 0,
      "blowAway": 0,
      "bounce": 0,
      "hitDamage": 0,
      "wormExplode": false,
      "explGround": false,
      "wormDestroy": false,
      "bloodOnHit": 0,
      "startFrame": 12,
      "numFrames": 0,
      "drawOnMap": false,
      "colorBullets": 0,
      "createOnExp": -1,
      "affectByExplosions": false,
      "dirtEffect": -1,
      "splinterAmount": 0,
      "splinterColour": 0,
      "splinterType": -1,
      "bloodTrail": false,
      "bloodTrailDelay": 0,
      "leaveObj": -1,
      "leaveObjDelay": 0,
      "timeToExplo": 2,
      "timeToExploV": 0,
      "immutable": true,
      "id": 1,
      "name": "nid 1"
    },
    {
      // nid2
      "detectDistance": 0,
      "gravity": 0,
      "speed": 0,
      "speedV": 0,
      "distribution": 0,
      "blowAway": 0,
      "bounce": 0,
      "hitDamage": 0,
      "wormExplode": false,
      "explGround": false,
      "wormDestroy": false,
      "bloodOnHit": 0,
      "startFrame": 13,
      "numFrames": 0,
      "drawOnMap": false,
      "colorBullets": 0,
      "createOnExp": -1,
      "affectByExplosions": false,
      "dirtEffect": -1,
      "splinterAmount": 0,
      "splinterColour": 0,
      "splinterType": -1,
      "bloodTrail": false,
      "bloodTrailDelay": 0,
      "leaveObj": -1,
      "leaveObjDelay": 0,
      "timeToExplo": 2,
      "timeToExploV": 0,
      "immutable": true,
      "id": 2,
      "name": "nid 2"
    }
  ],
  "sObjects": [
    {
      // sid0 objTrailType for wid2 wid4 wid5
      "startSound": -1,
      "numSounds": 0,
      "animDelay": 1,
      "startFrame": 1,
      "numFrames": 2,
      "detectRange": 0,
      "damage": 0,
      "blowAway": 0,
      "shadow": true,
      "shake": 0,
      "flash": 0,
      "dirtEffect": -1,
      "id": 0,
      "name": "sid 0"
    },
    {
      // sid1 createOnExp for wid2 wid4 wid5
      "startSound": 7,
      "numSounds": 2,
      "animDelay": 2,
      "startFrame": 7,
      "numFrames": 4,
      "detectRange": 8,
      "damage": 0.1,
      "blowAway": 0.035,
      "shadow": true,
      "shake": 1,
      "flash": 0,
      "dirtEffect": -1,
      "id": 1,
      "name": "sid 1"
    }
  ],
  "constants": {},
  "textures": [],
  "colorAnim": [],
  "textSpritesStartIdx": "",
  "crossHairSprite": "",
  "name": "$MERGED MOD",
  "author": "",
  "version": "",
  "behaviors":
[
    {
      "id": 0,
      "name": "peace",
      "update": "/** removes all wObjects on small area **/\nlet x = this.x, y = this.y;\nlet range = 6500;\napi.getObjects('w').forEach(o=>{\n    if(o===this) return;\n    if((o.x-x)*(o.x-x)+(o.y-y)*(o.y-y)>range) return;\n    let dmg = o.type.fixed;\n    if(!dmg) api.removeObject(o);\n});"
    },
    {
      "id": 1,
      "name": "stat minigun old",
      "update": "/** object can be used by any worm standing close enough **/\r\n[dir] = api.unpack(this,'i',[0]);\r\nlet d=0, t, g;\r\nlet x = this.x, y = this.y - 8;\r\nlet frame = api.getObjectFrame(this);\r\napi.setObjectFrame(this,0);\r\napi.getPlayers().forEach(p=>{\r\n    let dist = (p.x - x) * (p.x - x) + (p.y - y) * (p.y - y);\r\n    if(dist<170) t = p;\r\n    else return;\r\n});\r\nif(t){\r\napi.getPlayers().forEach(p=>{\r\n    if(p.id===t.id) return; // dont' fire at owner\r\n    if(api.isTeam() && p.team===t.team) return; // and team mates\r\n    let dist = (p.x - x) * (p.x - x) + (p.y - y) * (p.y - y);\r\n    let dist_owner = (t.x - x) * (t.x - x) + (t.y - y) * (t.y - y);\r\n    if(dist>20000) return; // acceptable range to shoot\r\n    if(!d || dist<d){ // closest target aim\r\n        d = dist;\r\n        g = p;\r\n    }\r\n    if(dist_owner<170 && (x < g.x)){\r\n        api.setObjectFrame(this,1);\r\n        dir = 0; // face right\r\n    }\r\n    if(dist_owner<170 && (x > g.x)){ \r\n        api.setObjectFrame(this,2);\r\n        dir = 3.141592653589793; // face left\r\n    }\r\n});\r\nif(g){\r\n    if(tick%2===0){\r\n    if(dir===0) api.createBlood(1, this.x+12, this.y-8, 0, 0, NID_1);\r\n    if(dir!==0) api.createBlood(1, this.x-20, this.y-8, 0, 0, NID_2);\r\n        api.createObject({\r\n        w: WID_3, /** universal bullet **/ \r\n        speed: 2, x:x, y:y,\r\n        angle: (this.y, dir),\r\n        owner: (t ? t.id : -1),\r\n        parent: this\r\n        });\r\n    api.playSound(SNDID_1); // shoot sound\r\n}\r\n}\r\n}\r\nif(!t) return; // no user found\r\napi.pack(this,'i',[dir]); // save data changes"
    },
    {
      "id": 2,
      "name": "no hit owner",
      "update": "/** object does not give damage to the owner and its teammates **/\nif(this.data) return api.killObject(this);\nlet o = api.getOwner(this);\nlet x = this.x, y = this.y;\napi.getPlayers().forEach(p=>{\n    if(o && p.id===o.id) return; // dont' fire at owner    \n    if(o && api.isTeam() && p.team===o.team) return; // and team mates\n    let dist = (p.x - x) * (p.x - x) + (p.y - y) * (p.y - y);\n    if(dist < 30){\n    //api.setPlayerHealth(t.id, t.hp-1);\n    api.hit(this, p.id, 2); // deal damage to enemy worm\n    api.createBlood(3, p.x, p.y, p.vx/3, p.vy/3);    \n    this.data = 1; // force kill on next frame, preventing double hit \n    }\n});"
    },
    {
      "id": 3,
      "name": "stat minigun new",
      "update": "/** object can be used by any worm standing close enough **/\r\n[dir] = api.unpack(this,'i',[0]);\r\nlet d=0, t, g;\r\nlet x = this.x, y = this.y - 8;\r\nlet frame = api.getObjectFrame(this);\r\napi.setObjectFrame(this,0);\r\napi.getPlayers().forEach(p=>{\r\n    let dist = (p.x - x) * (p.x - x) + (p.y - y) * (p.y - y);\r\n    if(dist<170) t = p;\r\n    else return;\r\n});\r\nif(t){\r\napi.getPlayers().forEach(p=>{\r\n    if(p.id===t.id) return; // dont' fire at owner\r\n    if(api.isTeam() && p.team===t.team) return; // and team mates\r\n    let dist = (p.x - x) * (p.x - x) + (p.y - y) * (p.y - y);\r\n    let dist_owner = (t.x - x) * (t.x - x) + (t.y - y) * (t.y - y);\r\n    if(dist>20000) return; // acceptable range to shoot\r\n    if(!d || dist<d){ // closest target aim\r\n        d = dist;\r\n        g = p;\r\n    }\r\n    if(dist_owner<170 && (x < g.x)){\r\n        api.setObjectFrame(this,1);\r\n        dir = 0; // face right\r\n    }\r\n    if(dist_owner<170 && (x > g.x)){ \r\n        api.setObjectFrame(this,2);\r\n        dir = 3.141592653589793; // face left\r\n    }\r\n});\r\nif(g){\r\n    if(tick%2===0){\r\n    if(dir===0) api.createBlood(1, this.x+12, this.y-8, 0, 0, NID_1);\r\n    if(dir!==0) api.createBlood(1, this.x-20, this.y-8, 0, 0, NID_2);\r\n    if(api.isTeam() && t.team<2){\r\n        api.createObject({\r\n        w: WID_4, /** minigun bullet green **/ \r\n        speed: 2, x:x, y:y,\r\n        angle: (this.y, dir),\r\n        owner: (t ? t.id : -1),\r\n        parent: this\r\n        });\r\n    }\r\n    if(api.isTeam() && t.team===2){\r\n        api.createObject({\r\n        w: WID_5, /** minigun bullet blue **/ \r\n        speed: 2, x:x, y:y,\r\n        angle: (this.y, dir),\r\n        owner: (t ? t.id : -1),\r\n        parent: this\r\n        });\r\n    }\r\napi.playSound(SNDID_1); // shoot sound\r\n}\r\n}\r\n}\r\nif(!t) return; // no user found\r\napi.pack(this,'i',[dir]); // save data changes"
    },
    {
      "id": 4,
      "name": "stat minigun new with tid",
      "update": "/** object can be used by any worm standing close enough **/\r\n[dir,tid] = api.unpack(this,'ii',[0,-1]);\r\nlet d=0, g;\r\nlet t = api.getPlayer(tid);\r\nlet x = this.x, y = this.y - 8;\r\napi.setObjectFrame(this,0);\r\nif(!t){\r\napi.getPlayers().forEach(p=>{\r\n    let dist = (p.x - x) * (p.x - x) + (p.y - y) * (p.y - y);\r\n    if(dist<170) {t = p; tid=p.id;}\r\n    else return;\r\n});\r\n}\r\nif (tid > -1 && !t) tid=-1;\r\nif(t){\r\napi.getPlayers().forEach(p=>{\r\n    if(p.id===t.id) return; // dont' fire at owner\r\n    if(api.isTeam() && p.team===t.team) return; // and team mates\r\n    let dist = (p.x - x) * (p.x - x) + (p.y - y) * (p.y - y);\r\n    let dist_owner = (t.x - x) * (t.x - x) + (t.y - y) * (t.y - y);\r\n    if(dist_owner>=200) {tid=-1}\r\n    if(dist>20000) return; // acceptable range to shoot\r\n    if(!d || dist<d){ // closest target aim\r\n        d = dist;\r\n        g = p;\r\n    }\r\n    if(dist_owner<170 && (x < g.x)){\r\n        api.setObjectFrame(this,1);\r\n        dir = 0; // face right\r\n    }\r\n    if(dist_owner<170 && (x > g.x)){ \r\n        api.setObjectFrame(this,2);\r\n        dir = 3.141592653589793; // face left\r\n    }\r\n});\r\nif(g){\r\n    if(tick%2===0){\r\n    if(dir===0) api.createBlood(1, this.x+12, this.y-8, 0, 0, NID_1);\r\n    if(dir!==0) api.createBlood(1, this.x-20, this.y-8, 0, 0, NID_2);\r\n    if(api.isTeam() && t.team<2){\r\n        api.createObject({\r\n        w: WID_4, /** minigun bullet green **/ \r\n        speed: 2, x:x, y:y,\r\n        angle: (this.y, dir),\r\n        owner: (t ? t.id : -1),\r\n        parent: this\r\n        });\r\n    }\r\n    if(api.isTeam() && t.team===2){\r\n        api.createObject({\r\n        w: WID_5, /** minigun bullet blue **/ \r\n        speed: 2, x:x, y:y,\r\n        angle: (this.y, dir),\r\n        owner: (t ? t.id : -1),\r\n        parent: this\r\n        });\r\n    }\r\napi.playSound(SNDID_1); // shoot sound\r\n}\r\n}\r\n}\r\napi.pack(this,'ii',[dir,tid]); // save data changes"
    }
]
}
