{
  "weapons":
  [
  ],
  "wObjects":
  [
    {
      // wid0
      "detectDistance": 1,
      "blowAway": 0,
      "gravity": 0,
      "exploSound": 0,
      "addSpeed": 0,
      "distribution": 0,
      "multSpeed": 1,
      "createOnExp": 6,
      "dirtEffect": 0,
      "wormExplode": false,
      "explGround": false,
      "wormCollide": false,
      "collideWithObjects": false,
      "affectByExplosions": 0,
      "bounce": 0,
      "bounceFriction": 0,
      "timeToExplo": 0,
      "timeToExploV": 0,
      "hitDamage": 0,
      "bloodOnHit": 0,
      "startFrame": 3,
      "numFrames": 1,
      "loopAnim": false,
      "shotType": 0,
      "repeat": 0,
      "colorBullets": 100,
      "splinterAmount": 40,
      "splinterColour": 0,
      "splinterType": 1,
      "splinterScatter": 0,
      "objTrailType": -1,
      "objTrailDelay": 0,
      "partTrailType": 0,
      "partTrailObj": 0,
      "partTrailDelay": 1,
      "speed": 0,
      "immutable": 4,
      "fixed": true,
      "platform": false,
      "removeonsobject": 0,
      "teamImmunity": 0,
      "detonable": 0,
      "behavior===undefined ? -1 : a": -1,
      "id": 0,
      "name": "metal_fueltank",
      "behavior": 0
    },
    {
      // wid1
      "detectDistance": 1,
      "blowAway": 0,
      "gravity": 0.5,
      "exploSound": 0,
      "addSpeed": 0,
      "distribution": 0,
      "multSpeed": 1,
      "createOnExp": 2,
      "dirtEffect": -1,
      "wormExplode": false,
      "explGround": true,
      "wormCollide": false,
      "collideWithObjects": false,
      "affectByExplosions": 0,
      "bounce": 0,
      "bounceFriction": 0,
      "timeToExplo": 0,
      "timeToExploV": 0,
      "hitDamage": 0,
      "bloodOnHit": 0,
      "startFrame": 5,
      "numFrames": 3,
      "loopAnim": false,
      "shotType": 0,
      "repeat": 0,
      "colorBullets": 100,
      "splinterAmount": 1,
      "splinterColour": 0,
      "splinterType": 3,
      "splinterScatter": 0,
      "objTrailType": -1,
      "objTrailDelay": 0,
      "partTrailType": 0,
      "partTrailObj": 2,
      "partTrailDelay": 1,
      "speed": 2,
      "immutable": false,
      "fixed": false,
      "platform": false,
      "removeonsobject": 0,
      "teamImmunity": 0,
      "detonable": 0,
      "behavior===undefined ? -1 : a": -1,
      "id": 1,
      "name": "metal_fueltank_part_1",
      "behavior": -1
    },
    {
      // wid2
      "detectDistance": 1,
      "blowAway": 0,
      "gravity": 0.5,
      "exploSound": 0,
      "addSpeed": 0,
      "distribution": 0,
      "multSpeed": 1,
      "createOnExp": 3,
      "dirtEffect": -1,
      "wormExplode": false,
      "explGround": true,
      "wormCollide": false,
      "collideWithObjects": false,
      "affectByExplosions": 0,
      "bounce": 0,
      "bounceFriction": 0,
      "timeToExplo": 0,
      "timeToExploV": 0,
      "hitDamage": 0,
      "bloodOnHit": 0,
      "startFrame": 10,
      "numFrames": 3,
      "loopAnim": false,
      "shotType": 0,
      "repeat": 0,
      "colorBullets": 100,
      "splinterAmount": 1,
      "splinterColour": 0,
      "splinterType": 4,
      "splinterScatter": 0,
      "objTrailType": -1,
      "objTrailDelay": 0,
      "partTrailType": 0,
      "partTrailObj": 2,
      "partTrailDelay": 1,
      "speed": 2,
      "immutable": false,
      "fixed": false,
      "platform": false,
      "removeonsobject": 0,
      "teamImmunity": 0,
      "detonable": 0,
      "behavior===undefined ? -1 : a": -1,
      "id": 2,
      "name": "metal_fueltank_part_2",
      "behavior": -1
    },
    {
      // wid3
      "detectDistance": 1,
      "blowAway": 0,
      "gravity": 0.5,
      "exploSound": 0,
      "addSpeed": 0,
      "distribution": 0,
      "multSpeed": 1,
      "createOnExp": 4,
      "dirtEffect": -1,
      "wormExplode": false,
      "explGround": true,
      "wormCollide": false,
      "collideWithObjects": false,
      "affectByExplosions": 0,
      "bounce": 0,
      "bounceFriction": 0,
      "timeToExplo": 0,
      "timeToExploV": 0,
      "hitDamage": 0,
      "bloodOnHit": 0,
      "startFrame": 9,
      "numFrames": 0,
      "loopAnim": false,
      "shotType": 0,
      "repeat": 0,
      "colorBullets": 100,
      "splinterAmount": 1,
      "splinterColour": 0,
      "splinterType": 5,
      "splinterScatter": 0,
      "objTrailType": -1,
      "objTrailDelay": 0,
      "partTrailType": 0,
      "partTrailObj": 2,
      "partTrailDelay": 1,
      "speed": 2,
      "immutable": false,
      "fixed": false,
      "platform": false,
      "removeonsobject": 0,
      "teamImmunity": 0,
      "detonable": 0,
      "behavior===undefined ? -1 : a": -1,
      "id": 3,
      "name": "metal_fueltank_part_3",
      "behavior": -1
    },
    {
      // wid4
      "detectDistance": 1,
      "blowAway": 1,
      "gravity": 0.5,
      "exploSound": 0,
      "addSpeed": 0.3,
      "distribution": 0,
      "multSpeed": 1,
      "createOnExp": 5,
      "dirtEffect": -1,
      "wormExplode": false,
      "explGround": false,
      "wormCollide": false,
      "collideWithObjects": false,
      "affectByExplosions": 0,
      "bounce": 1,
      "bounceFriction": 0.3,
      "timeToExplo": 2000,
      "timeToExploV": 0,
      "hitDamage": 0,
      "bloodOnHit": 0,
      "startFrame": 16,
      "numFrames": 0,
      "loopAnim": false,
      "shotType": 0,
      "repeat": 0,
      "colorBullets": 100,
      "splinterAmount": 0,
      "splinterColour": 0,
      "splinterType": -1,
      "splinterScatter": 0,
      "objTrailType": -1,
      "objTrailDelay": 0,
      "partTrailType": 1,
      "partTrailObj": 2,
      "partTrailDelay": 15,
      "speed": 5,
      "immutable": false,
      "fixed": false,
      "platform": false,
      "removeonsobject": 0,
      "teamImmunity": 0,
      "detonable": 0,
      "behavior===undefined ? -1 : a": -1,
      "id": 4,
      "name": "metal_fueltank_part_4",
      "behavior": -1
    },
    {
      // wid5
      "detectDistance": 1,
      "blowAway": 1,
      "gravity": 0.5,
      "exploSound": 0,
      "addSpeed": 0.04,
      "distribution": 0,
      "multSpeed": 1.5,
      "createOnExp": -1,
      "dirtEffect": -1,
      "wormExplode": false,
      "explGround": false,
      "wormCollide": false,
      "collideWithObjects": false,
      "affectByExplosions": 0,
      "bounce": 0.7,
      "bounceFriction": 0.2,
      "timeToExplo": 3000,
      "timeToExploV": 0,
      "hitDamage": 0,
      "bloodOnHit": 0,
      "startFrame": 17,
      "numFrames": 0,
      "loopAnim": false,
      "shotType": 0,
      "repeat": 0,
      "colorBullets": 100,
      "splinterAmount": 0,
      "splinterColour": 0,
      "splinterType": -1,
      "splinterScatter": 0,
      "objTrailType": -1,
      "objTrailDelay": 0,
      "partTrailType": 1,
      "partTrailObj": 2,
      "partTrailDelay": 20,
      "speed": 5,
      "immutable": false,
      "fixed": false,
      "platform": false,
      "removeonsobject": 0,
      "teamImmunity": 0,
      "detonable": 0,
      "behavior===undefined ? -1 : a": -1,
      "id": 5,
      "name": "metal_fueltank_part_5",
      "behavior": -1,
      "$$hashKey": "object:813"
    },
    {
      // wid6
      "detectDistance": 1,
      "blowAway": 0,
      "gravity": 0.5,
      "exploSound": 0,
      "addSpeed": 0,
      "distribution": 0,
      "multSpeed": 1,
      "createOnExp": 2,
      "dirtEffect": -1,
      "wormExplode": false,
      "explGround": true,
      "wormCollide": false,
      "collideWithObjects": false,
      "affectByExplosions": 0,
      "bounce": 1,
      "bounceFriction": 0.3,
      "timeToExplo": 0,
      "timeToExploV": 0,
      "hitDamage": 0,
      "bloodOnHit": 0,
      "startFrame": 14,
      "numFrames": 1,
      "loopAnim": false,
      "shotType": 0,
      "repeat": 0,
      "colorBullets": 100,
      "splinterAmount": 1,
      "splinterColour": 0,
      "splinterType": 3,
      "splinterScatter": 0,
      "objTrailType": -1,
      "objTrailDelay": 0,
      "partTrailType": 0,
      "partTrailObj": 2,
      "partTrailDelay": 1,
      "speed": 2,
      "immutable": false,
      "fixed": false,
      "platform": false,
      "removeonsobject": 0,
      "teamImmunity": 0,
      "detonable": 0,
      "behavior===undefined ? -1 : a": -1,
      "id": 6,
      "name": "metal_fueltank_part_6",
      "behavior": -1,
      "$$hashKey": "object:1263"
    },
    {
      // wid7
      "detectDistance": 1,
      "blowAway": 0,
      "gravity": 0.5,
      "exploSound": 0,
      "addSpeed": 0,
      "distribution": 0,
      "multSpeed": 5,
      "createOnExp": 9,
      "dirtEffect": -1,
      "wormExplode": false,
      "explGround": true,
      "wormCollide": false,
      "collideWithObjects": false,
      "affectByExplosions": 0,
      "bounce": 1,
      "bounceFriction": 0.3,
      "timeToExplo": 0,
      "timeToExploV": 0,
      "hitDamage": 0,
      "bloodOnHit": 0,
      "startFrame": 18,
      "numFrames": 3,
      "loopAnim": false,
      "shotType": 0,
      "repeat": 0,
      "colorBullets": 100,
      "splinterAmount": 1,
      "splinterColour": 0,
      "splinterType": -1,
      "splinterScatter": 0,
      "objTrailType": -1,
      "objTrailDelay": 0,
      "partTrailType": 0,
      "partTrailObj": 2,
      "partTrailDelay": 1,
      "speed": 20,
      "immutable": false,
      "fixed": false,
      "platform": false,
      "removeonsobject": 0,
      "teamImmunity": 0,
      "detonable": 0,
      "behavior===undefined ? -1 : a": -1,
      "id": 7,
      "name": "metal_fueltank_part_7",
      "behavior": -1,
      "$$hashKey": "object:1455"
    }
  ],
  "nObjects":
  [
    {
      // nid0 partTrailObj for wid0
      "detectDistance": 0,
      "gravity": 0,
      "speed": 0,
      "speedV": 0,
      "distribution": 0,
      "blowAway": 0,
      "bounce": 0,
      "hitDamage": 0,
      "wormExplode": false,
      "explGround": false,
      "wormDestroy": false,
      "bloodOnHit": 0,
      "startFrame": -1,
      "numFrames": 0,
      "drawOnMap": false,
      "colorBullets": 0,
      "createOnExp": -1,
      "affectByExplosions": false,
      "dirtEffect": 1,
      "splinterAmount": 0,
      "splinterColour": 0,
      "splinterType": -1,
      "bloodTrail": false,
      "bloodTrailDelay": 0,
      "leaveObj": -1,
      "leaveObjDelay": 16,
      "timeToExplo": 32,
      "timeToExploV": 0,
      "immutable": true,
      "teamImmunity": 0,
      "id": 0,
      "name": "nid 0"
    },
    {
      // nid1 splinterType for wid0
      "detectDistance": 0,
      "gravity": -0.6,
      "speed": 5,
      "speedV": 5,
      "distribution": 0.7,
      "blowAway": 0,
      "bounce": 1,
      "hitDamage": 0,
      "wormExplode": false,
      "explGround": false,
      "wormDestroy": false,
      "bloodOnHit": 0,
      "startFrame": -1,
      "numFrames": 0,
      "drawOnMap": false,
      "colorBullets": 0,
      "createOnExp": 1,
      "affectByExplosions": false,
      "dirtEffect": 2,
      "splinterAmount": 0,
      "splinterColour": "0",
      "splinterType": -1,
      "bloodTrail": false,
      "bloodTrailDelay": 0,
      "leaveObj": 7,
      "leaveObjDelay": 1,
      "timeToExplo": 5,
      "timeToExploV": 5,
      "immutable": false,
      "teamImmunity": 0,
      "id": 1,
      "name": "nid 1"
    },
    {
      // nid2 partTrailObj for wid1 wid2 wid3 wid4 wid5 wid6 wid7
      "detectDistance": 2,
      "gravity": 0.07000000029802322,
      "speed": 2,
      "speedV": 1,
      "distribution": 0.15000000596046448,
      "blowAway": 0.019999999552965164,
      "bounce": 0.30000001192092896,
      "hitDamage": 12,
      "wormExplode": false,
      "explGround": false,
      "wormDestroy": false,
      "bloodOnHit": 3,
      "startFrame": 37,
      "numFrames": 5,
      "drawOnMap": false,
      "colorBullets": 0,
      "createOnExp": -1,
      "affectByExplosions": true,
      "dirtEffect": -1,
      "splinterAmount": 0,
      "splinterColour": 110,
      "splinterType": -1,
      "bloodTrail": false,
      "bloodTrailDelay": 0,
      "leaveObj": 7,
      "leaveObjDelay": 1,
      "timeToExplo": 100,
      "timeToExploV": 0,
      "immutable": false,
      "teamImmunity": 0,
      "id": 2,
      "name": "nid 2"
    },
    {
      // nid3 splinterType for wid1 wid6
      "detectDistance": 0,
      "gravity": 0,
      "speed": 0,
      "speedV": 0,
      "distribution": 0,
      "blowAway": 0,
      "bounce": 0,
      "hitDamage": 0,
      "wormExplode": false,
      "explGround": false,
      "wormDestroy": false,
      "bloodOnHit": 0,
      "startFrame": 6,
      "numFrames": 0,
      "drawOnMap": true,
      "colorBullets": 0,
      "createOnExp": -1,
      "affectByExplosions": false,
      "dirtEffect": -1,
      "splinterAmount": 0,
      "splinterColour": 0,
      "splinterType": -1,
      "bloodTrail": false,
      "bloodTrailDelay": 0,
      "leaveObj": -1,
      "leaveObjDelay": 0,
      "timeToExplo": 0,
      "timeToExploV": 0,
      "immutable": false,
      "teamImmunity": 0,
      "id": 3,
      "name": "nid 3"
    },
    {
      // nid4 splinterType for wid2
      "detectDistance": 0,
      "gravity": 0,
      "speed": 0,
      "speedV": 0,
      "distribution": 0,
      "blowAway": 0,
      "bounce": 0,
      "hitDamage": 0,
      "wormExplode": false,
      "explGround": false,
      "wormDestroy": false,
      "bloodOnHit": 0,
      "startFrame": 10,
      "numFrames": 0,
      "drawOnMap": true,
      "colorBullets": 0,
      "createOnExp": -1,
      "affectByExplosions": false,
      "dirtEffect": -1,
      "splinterAmount": 0,
      "splinterColour": 0,
      "splinterType": -1,
      "bloodTrail": false,
      "bloodTrailDelay": 0,
      "leaveObj": -1,
      "leaveObjDelay": 0,
      "timeToExplo": 0,
      "timeToExploV": 0,
      "immutable": false,
      "teamImmunity": 0,
      "id": 4,
      "name": "nid 4"
    },
    {
      // nid5 splinterType for wid3
      "detectDistance": 0,
      "gravity": 0,
      "speed": 0,
      "speedV": 0,
      "distribution": 0,
      "blowAway": 0,
      "bounce": 0,
      "hitDamage": 0,
      "wormExplode": false,
      "explGround": false,
      "wormDestroy": false,
      "bloodOnHit": 0,
      "startFrame": 9,
      "numFrames": 0,
      "drawOnMap": true,
      "colorBullets": 0,
      "createOnExp": -1,
      "affectByExplosions": false,
      "dirtEffect": -1,
      "splinterAmount": 0,
      "splinterColour": 0,
      "splinterType": -1,
      "bloodTrail": false,
      "bloodTrailDelay": 0,
      "leaveObj": -1,
      "leaveObjDelay": 0,
      "timeToExplo": 0,
      "timeToExploV": 0,
      "immutable": false,
      "teamImmunity": 0,
      "id": 5,
      "name": "nid 5"
    }
  ],
  "sObjects":
  [
    {
      // sid0
      "startSound": 0,
      "numSounds": 1,
      "animDelay": 3,
      "startFrame": 23,
      "numFrames": 10,
      "detectRange": 17,
      "damage": 13.2,
      "blowAway": 0.03500000014901161,
      "shadow": false,
      "shake": 0,
      "flash": 0,
      "dirtEffect": 0,
      "id": 0,
      "name": "sid 0"
    },
    {
      // sid1 createOnExp for nid1
      "startSound": 0,
      "numSounds": 1,
      "animDelay": 3,
      "startFrame": 23,
      "numFrames": 10,
      "detectRange": 17,
      "damage": 13.2,
      "blowAway": 0.03500000014901161,
      "shadow": false,
      "shake": 0,
      "flash": 0,
      "dirtEffect": 2,
      "id": 1,
      "name": "sid 1"
    },
    {
      // sid2 createOnExp for wid1 wid6
      "startSound": 0,
      "numSounds": 1,
      "animDelay": 0,
      "startFrame": 6,
      "numFrames": 0,
      "detectRange": 17,
      "damage": 13.2,
      "blowAway": 0.03500000014901161,
      "shadow": false,
      "shake": 0,
      "flash": 0,
      "dirtEffect": -1,
      "id": 2,
      "name": "sid 2"
    },
    {
      // sid3 createOnExp for wid2
      "startSound": 0,
      "numSounds": 1,
      "animDelay": 0,
      "startFrame": 10,
      "numFrames": 0,
      "detectRange": 17,
      "damage": 13.2,
      "blowAway": 0.03500000014901161,
      "shadow": false,
      "shake": 0,
      "flash": 0,
      "dirtEffect": -1,
      "id": 3,
      "name": "sid 3"
    },
    {
      // sid4 createOnExp for wid3
      "startSound": 0,
      "numSounds": 1,
      "animDelay": 0,
      "startFrame": 9,
      "numFrames": 0,
      "detectRange": 17,
      "damage": 13.2,
      "blowAway": 0.03500000014901161,
      "shadow": false,
      "shake": 0,
      "flash": 0,
      "dirtEffect": -1,
      "id": 4,
      "name": "sid 4"
    },
    {
      // sid5 createOnExp for wid4
      "startSound": 0,
      "numSounds": 1,
      "animDelay": 0,
      "startFrame": 16,
      "numFrames": 0,
      "detectRange": 17,
      "damage": 13.2,
      "blowAway": 0.03500000014901161,
      "shadow": false,
      "shake": 0,
      "flash": 0,
      "dirtEffect": -1,
      "id": 5,
      "name": "sid 5"
    },
    {
      // sid6 createOnExp for wid0
      "startSound": 0,
      "numSounds": 1,
      "animDelay": 0,
      "startFrame": 43,
      "numFrames": 16,
      "detectRange": 35,
      "damage": 100,
      "blowAway": 0.03500000014901161,
      "shadow": false,
      "shake": 0,
      "flash": 0,
      "dirtEffect": 3,
      "id": 6,
      "name": "sid 6"
    },
    {
      // sid7
      "startSound": -1,
      "numSounds": 1,
      "animDelay": 0,
      "startFrame": 1,
      "numFrames": 0,
      "detectRange": 0,
      "damage": 0,
      "blowAway": 0,
      "shadow": false,
      "shake": 0,
      "flash": 0,
      "dirtEffect": 2,
      "id": 7,
      "name": "sid 7"
    },
    {
      // sid8
      "startSound": 0,
      "numSounds": 1,
      "animDelay": 0,
      "startFrame": 15,
      "numFrames": 0,
      "detectRange": 17,
      "damage": 13.2,
      "blowAway": 0.03500000014901161,
      "shadow": false,
      "shake": 0,
      "flash": 0,
      "dirtEffect": -1,
      "id": 8,
      "name": "sid 8",
      "$$hashKey": "object:1310"
    },
    {
      // sid9 createOnExp for wid7
      "startSound": 0,
      "numSounds": 1,
      "animDelay": 0,
      "startFrame": 20,
      "numFrames": 0,
      "detectRange": 17,
      "damage": 13.2,
      "blowAway": 0.03500000014901161,
      "shadow": false,
      "shake": 0,
      "flash": 0,
      "dirtEffect": -1,
      "id": 9,
      "name": "sid 9",
      "$$hashKey": "object:1645"
    }
  ],
  "constants":
  {
  },
  "textures":
  [
    {
      "nDrawBack": true,
      "mFrame": 22,
      "sFrame": 36,
      "rFrame": 1,
      "id": 0,
      "name": "tid 0"
    },
    {
      "nDrawBack": false,
      "mFrame": 22,
      "sFrame": 2,
      "rFrame": 0,
      "id": 1,
      "name": "tid 1"
    },
    {
      "nDrawBack": true,
      "mFrame": 35,
      "sFrame": 36,
      "rFrame": 1,
      "id": 2,
      "name": "tid 2",
      "$$hashKey": "object:5017"
    },
    {
      "nDrawBack": true,
      "mFrame": 60,
      "sFrame": 36,
      "rFrame": 1,
      "id": 3,
      "name": "tid 3",
      "$$hashKey": "object:3137"
    }
  ],
  "behaviors":
  [
    {
      "id": 0,
      "name": "bid 0",
      "update": "[hp,fc] = api.unpack(this,'ii',[350, 0]);\nlet WLPI = 3.141592653589793;\nlet xx = this.x, yy = this.y;\nlet x = this.x-44, y = this.y-50; //replace to top left of sprite\nlet hurt = 0;\nlet range = 10;\nlet collide = (o) => (x<=o.x && x+80>=o.x && y<=o.y && y+80>=o.y);\nlet setHurt = (dmg) => {\n     hurt = 1; // display hurt sprite for 1 frames\n     hp -= dmg; // deal damage to metroid\n}\n\n// check for wObjects collisions every 3 frames\nif(tick%3===0)  api.getObjects('w').forEach(o=>{\n        if(!o.type.wormCollide) return; // only objects hitting worms\n        if(!collide(o)) return;\n        let dmg = o.type.hitDamage || 0;\n        api.killObject(o); // will trigger wObject explosion\n        if(dmg){ // fan has no dmg for instance\n           setHurt(dmg);\n        }\n    }); \n// check for nObjects collisions\nif(tick%3===0)  api.getObjects('n').forEach(o=>{\n        if(!o.type.wormDestroy) return; // only objects hitting worms\n        if(!collide(o)) return;\n        let dmg = o.type.hitDamage || 0;\n        \n        if(dmg){ // fan has no dmg for instance\n            api.killObject(o); // will trigger nObject explosion\n            setHurt(dmg);\n        }\n    }); \nif(tick%5===0) api.getObjects('s').forEach(o=>{\n    \tlet r = o.type.detectRange;\n    \tif(!(xx<o.x+r && xx>o.x-r && yy<o.y+r && yy>o.y-r)) return;\n\t\tlet d, dx = x - o.x, dy = yy - o.y;\n        let rx = r - (0 < dx ? dx : -dx);\n        let ry = r - (0 < dy ? dy : -dy);\n\t\tlet dist = rx + ry >> 1;\n\t\tlet dmg = o.type.damage * dist; \n\t\tif(r) dmg /= r; // reduce damage with detectRange\n\t\thurt = 1; // hurt sprite for some frames\n        hp -= Math.ceil(dmg/2); // deal damage to metroid\n    });\napi.setObjectFrame(this, hurt); // hurt frame\nif(hp<1){\n    hp = 0; \n    api.killObject(this);\n    api.createObject({\n        w: WID_7, // part_2\n        speed:3.3,angle:WLPI/2*3, \n        x:x+20, y:y-8,\n       // owner:o.id\n    });\n    api.createObject({\n        w: WID_6, // part_2\n        speed:0.5,angle:WLPI/2*3.5, \n        x:x+85, y:y+80,\n       // owner:o.id\n    });\n    api.createObject({\n        w: WID_4, // part_2\n        speed:0.7,angle:WLPI/2*3.7, \n        x:x-15, y:y+70,\n       // owner:o.id\n    });\n    api.createObject({\n        w: WID_5, // part_2\n        speed:5,angle:WLPI, \n        x:x-15, y:y+70,\n       // owner:o.id\n    });\n      api.createObject({\n        w: WID_4, // part_2\n        speed:3,angle:WLPI/2*2.2, \n        x:x-10, y:y+70,\n       // owner:o.id\n    });\n    api.createObject({\n        w: WID_3, // part_2\n        speed:1,angle:WLPI/2*3, \n        x:x+80, y:y,\n       // owner:o.id\n    });\n    api.createObject({\n        w: WID_2, // part_2\n        speed:1,angle:WLPI/2*2.3, \n        x:x, y:y-10,\n       // owner:o.id\n    });\n    api.createObject({\n        w: WID_1, // part_1\n        speed:4.5, angle:WLPI/2*1.7, \n        x:x, y:y,\n       // owner:o.id\n    });    \n\n}\napi.pack(this,'ii',[hp,fc]);  "
    }
  ],
  "colorAnim":
  [
  ],
  "textSpritesStartIdx": "",
  "crossHairSprite": "",
  "name": "metal_fueltank",
  "author": "",
  "version": ""
}