{
  "weapons":
  [
  ],
  "wObjects":
  [
    {
      // wid0
      "detectDistance": 0,
      "blowAway": 0,
      "gravity": 0,
      "exploSound": -1,
      "addSpeed": 0,
      "distribution": 0,
      "multSpeed": 0,
      "createOnExp": -1,
      "dirtEffect": -1,
      "wormExplode": false,
      "explGround": false,
      "wormCollide": false,
      "collideWithObjects": false,
      "affectByExplosions": false,
      "bounce": 0,
      "bounceFriction": 0,
      "timeToExplo": 45,
      "timeToExploV": 0,
      "hitDamage": 0,
      "bloodOnHit": 0,
      "startFrame": 1,
      "numFrames": 7,
      "loopAnim": false,
      "shotType": 0,
      "repeat": 1,
      "colorBullets": 0,
      "splinterAmount": 0,
      "splinterColour": 66,
      "splinterType": -1,
      "splinterScatter": 0,
      "objTrailType": -1,
      "objTrailDelay": 1,
      "partTrailType": 0,
      "partTrailObj": -1,
      "partTrailDelay": 0,
      "speed": 1,
      "immutable": true,
      "name": "lava_bubble",
      "id": 0,
      "teamImmunity": 0,
      "fixed": true
    },
    {
      // wid1
      "detectDistance": 0,
      "blowAway": 0,
      "gravity": 0,
      "exploSound": -1,
      "addSpeed": 0,
      "distribution": 0,
      "multSpeed": 0,
      "createOnExp": -1,
      "dirtEffect": -1,
      "wormExplode": false,
      "explGround": false,
      "wormCollide": false,
      "collideWithObjects": false,
      "affectByExplosions": false,
      "bounce": 0,
      "bounceFriction": 0,
      "timeToExplo": 30,
      "timeToExploV": 0,
      "hitDamage": 0,
      "bloodOnHit": 0,
      "startFrame": 11,
      "numFrames": 3,
      "loopAnim": false,
      "shotType": 0,
      "repeat": 1,
      "colorBullets": 0,
      "splinterAmount": 0,
      "splinterColour": 66,
      "splinterType": -1,
      "splinterScatter": 0,
      "objTrailType": -1,
      "objTrailDelay": 1,
      "partTrailType": 0,
      "partTrailObj": -1,
      "partTrailDelay": 0,
      "speed": 1,
      "immutable": true,
      "name": "lava_bubble_2",
      "id": 1,
      "teamImmunity": 0,
      "$$hashKey": "object:1578",
      "fixed": true
    },
    {
      // wid2
      "detectDistance": 0,
      "blowAway": 0,
      "gravity": 0,
      "exploSound": -1,
      "addSpeed": 0,
      "distribution": 0,
      "multSpeed": 0,
      "createOnExp": -1,
      "dirtEffect": -1,
      "wormExplode": false,
      "explGround": false,
      "wormCollide": false,
      "collideWithObjects": false,
      "affectByExplosions": false,
      "bounce": 0,
      "bounceFriction": 0,
      "timeToExplo": 30,
      "timeToExploV": 0,
      "hitDamage": 0,
      "bloodOnHit": 0,
      "startFrame": 15,
      "numFrames": 3,
      "loopAnim": false,
      "shotType": 0,
      "repeat": 1,
      "colorBullets": 0,
      "splinterAmount": 0,
      "splinterColour": 66,
      "splinterType": -1,
      "splinterScatter": 0,
      "objTrailType": -1,
      "objTrailDelay": 0,
      "partTrailType": 0,
      "partTrailObj": -1,
      "partTrailDelay": 0,
      "speed": 1,
      "immutable": true,
      "name": "lava_bubble_3",
      "id": 2,
      "teamImmunity": 0,
      "$$hashKey": "object:1730",
      "fixed": true
    },
    {
      // wid3
      "detectDistance": 0,
      "blowAway": 0,
      "gravity": 0,
      "exploSound": -1,
      "addSpeed": 0,
      "distribution": 0,
      "multSpeed": 0,
      "createOnExp": -1,
      "dirtEffect": -1,
      "wormExplode": false,
      "explGround": false,
      "wormCollide": false,
      "collideWithObjects": false,
      "affectByExplosions": false,
      "bounce": 0,
      "bounceFriction": 0,
      "timeToExplo": 25,
      "timeToExploV": 0,
      "hitDamage": 0,
      "bloodOnHit": 0,
      "startFrame": 19,
      "numFrames": 5,
      "loopAnim": false,
      "shotType": 0,
      "repeat": 1,
      "colorBullets": 0,
      "splinterAmount": 0,
      "splinterColour": 66,
      "splinterType": -1,
      "splinterScatter": 0,
      "objTrailType": -1,
      "objTrailDelay": 0,
      "partTrailType": 0,
      "partTrailObj": -1,
      "partTrailDelay": 0,
      "speed": 1,
      "immutable": true,
      "name": "lava_hit",
      "id": 3,
      "teamImmunity": 0,
      "$$hashKey": "object:2000",
      "fixed": true
    },
    {
      // wid4
      "detectDistance": 0,
      "blowAway": 0,
      "gravity": 0,
      "exploSound": -1,
      "addSpeed": 0,
      "distribution": 0,
      "multSpeed": 1,
      "createOnExp": -1,
      "dirtEffect": -1,
      "wormExplode": false,
      "explGround": false,
      "wormCollide": false,
      "collideWithObjects": false,
      "affectByExplosions": false,
      "bounce": 0,
      "bounceFriction": 0.8,
      "timeToExplo": 0,
      "timeToExploV": 0,
      "hitDamage": 0,
      "bloodOnHit": 0,
      "startFrame": -1,
      "numFrames": 0,
      "loopAnim": false,
      "shotType": 0,
      "repeat": 1,
      "colorBullets": 0,
      "splinterAmount": 0,
      "splinterColour": 66,
      "splinterType": -1,
      "splinterScatter": 0,
      "objTrailType": -1,
      "objTrailDelay": 1,
      "partTrailType": 0,
      "partTrailObj": -1,
      "partTrailDelay": 0,
      "speed": 230,
      "immutable": true,
      "name": "lava_trap",
      "id": 4,
      "teamImmunity": 0,
      "$$hashKey": "object:3768",
      "fixed": true,
      "behavior": 0
    }
  ],
  "nObjects":
  [
    {
      // nid0
      "detectDistance": 1,
      "gravity": 0,
      "speed": 0,
      "speedV": 0,
      "distribution": 0,
      "blowAway": 0,
      "bounce": 0,
      "hitDamage": 0.02,
      "wormExplode": false,
      "explGround": false,
      "wormDestroy": false,
      "bloodOnHit": 1,
      "startFrame": 1,
      "numFrames": 7,
      "drawOnMap": false,
      "colorBullets": 67,
      "createOnExp": -1,
      "affectByExplosions": false,
      "dirtEffect": 0,
      "splinterAmount": 0,
      "splinterColour": 100,
      "splinterType": -1,
      "bloodTrail": false,
      "bloodTrailDelay": 0,
      "leaveObj": -1,
      "leaveObjDelay": 0,
      "timeToExplo": 12,
      "timeToExploV": 0,
      "immutable": true,
      "id": 0,
      "name": "nid 0",
      "teamImmunity": 0
    }
  ],
  "sObjects":
  [
  ],
  "constants":
  {
  },
  "textures":
  [
    {
      "nDrawBack": true,
      "mFrame": 9,
      "sFrame": 10,
      "rFrame": 2,
      "id": 0,
      "name": "tid 0"
    }
  ],
  "colorAnim":
  [
  ],
  "textSpritesStartIdx": "",
  "crossHairSprite": "",
  "name": "lava_death_trap_lava",
  "author": "",
  "version": "",
  "behaviors":
  [
    {
      "id": 0,
      "name": "lava_controller",
      "update": "if(life % 3) return;\n\nconst pl = api.getPlayers();\nfor (const p of pl) {\n    if (p.y>432) {\n         api.createObject({\n            wobject:WID_3, x:p.x, y:430\n        });\n        api.hit(this, p.id, 666);\n    }\n}\n\nif (life%50) return;\nconst mulberry32= (a) => {\n      var t = a += 0x6D2B79F5;\n      t = Math.imul(t ^ t >>> 15, t | 1);\n      t ^= t + Math.imul(t ^ t >>> 7, t | 61);\n      return Math.round(((t ^ t >>> 14) >>> 0) / 4294967296 * 100);\n};\nconst a = mulberry32(tick)%6;\nconst x = ((mulberry32(tick)%85)*2)+238;\nlet wid = WID_0;\nif (a>0) {\n    switch (true) {\n        case a<=2:\n            wid = WID_1;\n        break;\n        case a<=4:\n            wid = WID_2;\n        break;\n        default:\n        break;\n    }\n    api.createObject({\n            wobject:wid, x:x, y:431\n    });\n}\n"
    }
  ]
}