{
  "weapons":
  [
    {
      "parts": 1,
      "bulletType": 0,
      "bulletSpeed": 0.1,
      "bulletSpeedInherit": 0,
      "distribution": 0,
      "recoil": -0.4,
      "ammo": 1,
      "delay": 10,
      "loadingTime": 999999,
      "leaveShells": 0,
      "leaveShellDelay": 1,
      "fireCone": 0,
      "laserSight": false,
      "laserBeam": false,
      "launchSound": 62,
      "playReloadSound": true,
      "name": "VZ ONE PAWNEE",
      "id": 0,
      "reloadSound": -1
    }
  ],
  "wObjects":
  [
    {
      // wid0 used in VZ ONE PAWNEE
      "detectDistance": 10,
      "blowAway": 0.2,
      "gravity": -0.021,
      "exploSound": -1,
      "addSpeed": 18,
      "distribution": 0,
      "multSpeed": 1,
      "createOnExp": 14,
      "dirtEffect": -1,
      "wormExplode": false,
      "explGround": false,
      "wormCollide": false,
      "collideWithObjects": false,
      "affectByExplosions": 1,
      "bounce": 0,
      "bounceFriction": 0,
      "timeToExplo": 0,
      "timeToExploV": 0,
      "hitDamage": 0,
      "bloodOnHit": 0,
      "startFrame": 280,
      "numFrames": 0,
      "loopAnim": true,
      "shotType": 2,
      "repeat": 1,
      "colorBullets": 0,
      "splinterAmount": 0,
      "splinterColour": 0,
      "splinterType": -1,
      "splinterScatter": 0,
      "objTrailType": -1,
      "objTrailDelay": 0,
      "partTrailType": 1,
      "partTrailObj": -1,
      "partTrailDelay": 0,
      "speed": 9,
      "immutable": 0,
      "fixed": false,
      "platform": false,
      "removeonsobject": 0,
      "teamImmunity": 0,
      "detonable": true,
      "id": 0,
      "name": "pawnee",
      "behavior": 0
    }
  ],
  "nObjects":
  [
    {
      // nid0 partTrailObj for wid7 wid11 wid23 splinterType for nid5 nid14
      "detectDistance": 0,
      "gravity": 0.01220703125,
      "speed": 1.399999976158142,
      "speedV": 0.4000000059604645,
      "distribution": 0.152587890625,
      "blowAway": 0,
      "bounce": 0.10000000149011612,
      "hitDamage": 0,
      "wormExplode": false,
      "explGround": true,
      "wormDestroy": false,
      "bloodOnHit": 0,
      "startFrame": 165,
      "numFrames": 3,
      "drawOnMap": true,
      "colorBullets": 0,
      "createOnExp": -1,
      "affectByExplosions": false,
      "dirtEffect": -1,
      "splinterAmount": 0,
      "splinterColour": 0,
      "splinterType": -1,
      "bloodTrail": true,
      "bloodTrailDelay": 4,
      "leaveObj": -1,
      "leaveObjDelay": 0,
      "timeToExplo": 0,
      "timeToExploV": 0,
      "immutable": false,
      "teamImmunity": 0,
      "id": 0,
      "name": "nid 0"
    },
    {
      // nid1
      "detectDistance": 0,
      "gravity": 0.01220703125,
      "speed": 1.399999976158142,
      "speedV": 0.4000000059604645,
      "distribution": 0.152587890625,
      "blowAway": 0,
      "bounce": 0.10000000149011612,
      "hitDamage": 0,
      "wormExplode": false,
      "explGround": true,
      "wormDestroy": false,
      "bloodOnHit": 0,
      "startFrame": 169,
      "numFrames": 3,
      "drawOnMap": true,
      "colorBullets": 0,
      "createOnExp": -1,
      "affectByExplosions": false,
      "dirtEffect": -1,
      "splinterAmount": 0,
      "splinterColour": 0,
      "splinterType": -1,
      "bloodTrail": true,
      "bloodTrailDelay": 4,
      "leaveObj": -1,
      "leaveObjDelay": 0,
      "timeToExplo": 0,
      "timeToExploV": 0,
      "immutable": false,
      "teamImmunity": 0,
      "id": 1,
      "name": "nid 1"
    },
    {
      // nid2
      "detectDistance": 0,
      "gravity": 0.01068115234375,
      "speed": 0.800000011920929,
      "speedV": 0.4000000059604645,
      "distribution": 0.152587890625,
      "blowAway": 0,
      "bounce": 0,
      "hitDamage": 0,
      "wormExplode": false,
      "explGround": true,
      "wormDestroy": false,
      "bloodOnHit": 0,
      "startFrame": 0,
      "numFrames": 0,
      "drawOnMap": false,
      "colorBullets": 17,
      "createOnExp": -1,
      "affectByExplosions": false,
      "dirtEffect": -1,
      "splinterAmount": 0,
      "splinterColour": 0,
      "splinterType": -1,
      "bloodTrail": false,
      "bloodTrailDelay": 0,
      "leaveObj": -1,
      "leaveObjDelay": 0,
      "timeToExplo": 0,
      "timeToExploV": 0,
      "immutable": false,
      "teamImmunity": 0,
      "id": 2,
      "name": "nid 2"
    },
    {
      // nid3
      "detectDistance": 2,
      "gravity": 0.02199999988079071,
      "speed": 2,
      "speedV": 1.5,
      "distribution": 0.10000000149011612,
      "blowAway": 0.10000000149011612,
      "bounce": 0,
      "hitDamage": 5.5,
      "wormExplode": true,
      "explGround": true,
      "wormDestroy": true,
      "bloodOnHit": 1,
      "startFrame": 0,
      "numFrames": 0,
      "drawOnMap": false,
      "colorBullets": 68,
      "createOnExp": 2,
      "affectByExplosions": false,
      "dirtEffect": -1,
      "splinterAmount": 1,
      "splinterColour": 0,
      "splinterType": 14,
      "bloodTrail": false,
      "bloodTrailDelay": 0,
      "leaveObj": 5,
      "leaveObjDelay": 1,
      "timeToExplo": 0,
      "timeToExploV": 0,
      "immutable": false,
      "teamImmunity": 0,
      "id": 3,
      "name": "nid 3"
    },
    {
      // nid4 partTrailObj for wid15
      "detectDistance": 15,
      "gravity": 0,
      "speed": 0,
      "speedV": 0,
      "distribution": 0,
      "blowAway": 0,
      "bounce": 0,
      "hitDamage": 0.3,
      "wormExplode": false,
      "explGround": false,
      "wormDestroy": false,
      "bloodOnHit": 0,
      "startFrame": 787,
      "numFrames": 0,
      "drawOnMap": false,
      "colorBullets": 0,
      "createOnExp": 55,
      "affectByExplosions": false,
      "dirtEffect": 24,
      "splinterAmount": 0,
      "splinterColour": 0,
      "splinterType": -1,
      "bloodTrail": false,
      "bloodTrailDelay": 0,
      "leaveObj": 54,
      "leaveObjDelay": 3,
      "timeToExplo": 300,
      "timeToExploV": 0,
      "immutable": false,
      "teamImmunity": 0,
      "id": 4,
      "name": "nid 4"
    },
    {
      // nid5 partTrailObj for wid3 wid9
      "detectDistance": 2,
      "gravity": 0.03799999877810478,
      "speed": 1.5,
      "speedV": 0.5,
      "distribution": 1,
      "blowAway": 0.15000000596046448,
      "bounce": 0,
      "hitDamage": 1,
      "wormExplode": true,
      "explGround": true,
      "wormDestroy": true,
      "bloodOnHit": 1,
      "startFrame": -1,
      "numFrames": -1,
      "drawOnMap": false,
      "colorBullets": -1,
      "createOnExp": 2,
      "affectByExplosions": false,
      "dirtEffect": -1,
      "splinterAmount": 0,
      "splinterColour": 0,
      "splinterType": 0,
      "bloodTrail": false,
      "bloodTrailDelay": 0,
      "leaveObj": 25,
      "leaveObjDelay": 1,
      "timeToExplo": 0,
      "timeToExploV": 0,
      "immutable": false,
      "teamImmunity": 0,
      "id": 5,
      "name": "nid 5"
    },
    {
      // nid6
      "detectDistance": 0,
      "gravity": 0.01715087890625,
      "speed": 0.44999998807907104,
      "speedV": 0.44999998807907104,
      "distribution": 0.4999847412109375,
      "blowAway": 0.009999999776482582,
      "bounce": 0.05000000074505806,
      "hitDamage": 0,
      "wormExplode": false,
      "explGround": true,
      "wormDestroy": false,
      "bloodOnHit": 0,
      "startFrame": 0,
      "numFrames": 0,
      "drawOnMap": false,
      "colorBullets": 82,
      "createOnExp": -1,
      "affectByExplosions": false,
      "dirtEffect": -1,
      "splinterAmount": 0,
      "splinterColour": 0,
      "splinterType": -1,
      "bloodTrail": true,
      "bloodTrailDelay": 15,
      "leaveObj": -1,
      "leaveObjDelay": 0,
      "timeToExplo": 45,
      "timeToExploV": 45,
      "immutable": false,
      "teamImmunity": 0,
      "id": 6,
      "name": "nid 6"
    },
    {
      // nid7
      "detectDistance": 0,
      "gravity": 0.05999999865889549,
      "speed": -1,
      "speedV": -1,
      "distribution": 0.15000000596046448,
      "blowAway": 0.009999999776482582,
      "bounce": 0.20000000298023224,
      "hitDamage": 0,
      "wormExplode": false,
      "explGround": true,
      "wormDestroy": false,
      "bloodOnHit": 0,
      "startFrame": 0,
      "numFrames": 0,
      "drawOnMap": false,
      "colorBullets": 186,
      "createOnExp": -1,
      "affectByExplosions": false,
      "dirtEffect": -1,
      "splinterAmount": 0,
      "splinterColour": 0,
      "splinterType": -1,
      "bloodTrail": false,
      "bloodTrailDelay": 0,
      "leaveObj": 0,
      "leaveObjDelay": 0,
      "timeToExplo": 0,
      "timeToExploV": 0,
      "immutable": false,
      "teamImmunity": 0,
      "id": 7,
      "name": "nid 7"
    },
    {
      // nid8
      "detectDistance": 2,
      "gravity": 0.03700000047683716,
      "speed": 2.5,
      "speedV": 1.5,
      "distribution": 1.5,
      "blowAway": 0,
      "bounce": 0.23000000417232513,
      "hitDamage": 11,
      "wormExplode": true,
      "explGround": true,
      "wormDestroy": true,
      "bloodOnHit": 15,
      "startFrame": 202,
      "numFrames": 3,
      "drawOnMap": false,
      "colorBullets": 0,
      "createOnExp": 0,
      "affectByExplosions": true,
      "dirtEffect": -1,
      "splinterAmount": 2,
      "splinterColour": 0,
      "splinterType": 14,
      "bloodTrail": false,
      "bloodTrailDelay": 0,
      "leaveObj": -1,
      "leaveObjDelay": 0,
      "timeToExplo": 350,
      "timeToExploV": 100,
      "immutable": false,
      "teamImmunity": 0,
      "id": 8,
      "name": "nid 8"
    },
    {
      // nid9
      "detectDistance": 0,
      "gravity": 0,
      "speed": 2.299999952316284,
      "speedV": 0,
      "distribution": 0.5,
      "blowAway": 0,
      "bounce": 0.5,
      "hitDamage": 1,
      "wormExplode": false,
      "explGround": false,
      "wormDestroy": false,
      "bloodOnHit": 0,
      "startFrame": 178,
      "numFrames": 0,
      "drawOnMap": false,
      "colorBullets": 0,
      "createOnExp": 0,
      "affectByExplosions": false,
      "dirtEffect": 2,
      "splinterAmount": 10,
      "splinterColour": 75,
      "splinterType": 17,
      "bloodTrail": false,
      "bloodTrailDelay": 0,
      "leaveObj": 5,
      "leaveObjDelay": 5,
      "timeToExplo": 22,
      "timeToExploV": 22,
      "immutable": false,
      "teamImmunity": 0,
      "id": 9,
      "name": "nid 9"
    },
    {
      // nid10
      "detectDistance": 2,
      "gravity": 0.032999999821186066,
      "speed": 0,
      "speedV": 0,
      "distribution": 0.2199999988079071,
      "blowAway": 0.20000000298023224,
      "bounce": 0,
      "hitDamage": 8.5,
      "wormExplode": true,
      "explGround": true,
      "wormDestroy": true,
      "bloodOnHit": 10,
      "startFrame": 194,
      "numFrames": 0,
      "drawOnMap": false,
      "colorBullets": 0,
      "createOnExp": 43,
      "affectByExplosions": true,
      "dirtEffect": -1,
      "splinterAmount": 5,
      "splinterColour": 0,
      "splinterType": 44,
      "bloodTrail": false,
      "bloodTrailDelay": 0,
      "leaveObj": 29,
      "leaveObjDelay": 6,
      "timeToExplo": 0,
      "timeToExploV": 0,
      "immutable": false,
      "teamImmunity": 0,
      "id": 10,
      "name": "nid 10"
    },
    {
      // nid11
      "detectDistance": 5,
      "gravity": 0.03999999910593033,
      "speed": 1.2000000476837158,
      "speedV": 0,
      "distribution": 0,
      "blowAway": 0,
      "bounce": 0.009999999776482582,
      "hitDamage": 0,
      "wormExplode": false,
      "explGround": false,
      "wormDestroy": false,
      "bloodOnHit": 0,
      "startFrame": 410,
      "numFrames": 0,
      "drawOnMap": true,
      "colorBullets": 0,
      "createOnExp": 0,
      "affectByExplosions": true,
      "dirtEffect": -1,
      "splinterAmount": 30,
      "splinterColour": 0,
      "splinterType": 103,
      "bloodTrail": false,
      "bloodTrailDelay": 0,
      "leaveObj": 0,
      "leaveObjDelay": 0,
      "timeToExplo": 80,
      "timeToExploV": 0,
      "immutable": false,
      "teamImmunity": 0,
      "id": 11,
      "name": "nid 11"
    },
    {
      // nid12 splinterType for nid16
      "detectDistance": 0,
      "gravity": 0.01373291015625,
      "speed": 1.4500000476837158,
      "speedV": 0.8999999761581421,
      "distribution": 1,
      "blowAway": 0,
      "bounce": 0.5,
      "hitDamage": 0,
      "wormExplode": false,
      "explGround": true,
      "wormDestroy": false,
      "bloodOnHit": 0,
      "startFrame": 0,
      "numFrames": 0,
      "drawOnMap": false,
      "colorBullets": 0,
      "createOnExp": 14,
      "affectByExplosions": false,
      "dirtEffect": -1,
      "splinterAmount": 0,
      "splinterColour": 0,
      "splinterType": -1,
      "bloodTrail": false,
      "bloodTrailDelay": 0,
      "leaveObj": 14,
      "leaveObjDelay": 4,
      "timeToExplo": 28,
      "timeToExploV": 10,
      "immutable": false,
      "teamImmunity": 0,
      "id": 12,
      "name": "nid 12"
    },
    {
      // nid13
      "detectDistance": 0,
      "gravity": 0,
      "speed": 4,
      "speedV": 8,
      "distribution": 0.152587890625,
      "blowAway": 0,
      "bounce": 1,
      "hitDamage": 0,
      "wormExplode": false,
      "explGround": false,
      "wormDestroy": false,
      "bloodOnHit": 0,
      "startFrame": 0,
      "numFrames": 0,
      "drawOnMap": false,
      "colorBullets": 0,
      "createOnExp": -1,
      "affectByExplosions": false,
      "dirtEffect": 4,
      "splinterAmount": 0,
      "splinterColour": 0,
      "splinterType": -1,
      "bloodTrail": false,
      "bloodTrailDelay": 0,
      "leaveObj": -1,
      "leaveObjDelay": 0,
      "timeToExplo": 1,
      "timeToExploV": 0,
      "immutable": false,
      "teamImmunity": 0,
      "id": 13,
      "name": "nid 13"
    },
    {
      // nid14 partTrailObj for wid12 splinterType for nid3 nid8 nid17 nid22
      "detectDistance": 0,
      "gravity": 0,
      "speed": 1,
      "speedV": 0.2,
      "distribution": 0.5,
      "blowAway": 0,
      "bounce": 0,
      "hitDamage": 0,
      "wormExplode": true,
      "explGround": true,
      "wormDestroy": false,
      "bloodOnHit": 0,
      "startFrame": 184,
      "numFrames": 0,
      "drawOnMap": true,
      "colorBullets": 0,
      "createOnExp": -1,
      "affectByExplosions": false,
      "dirtEffect": 2,
      "splinterAmount": 0,
      "splinterColour": 0,
      "splinterType": 0,
      "bloodTrail": false,
      "bloodTrailDelay": 0,
      "leaveObj": -1,
      "leaveObjDelay": 0,
      "timeToExplo": 1,
      "timeToExploV": 0,
      "immutable": false,
      "teamImmunity": 0,
      "id": 14,
      "name": "nid 14"
    },
    {
      // nid15
      "detectDistance": 6,
      "gravity": 0.014999999664723873,
      "speed": 1,
      "speedV": 1,
      "distribution": 0.4000000059604645,
      "blowAway": -0.009999999776482582,
      "bounce": 0.4000000059604645,
      "hitDamage": 0.25,
      "wormExplode": false,
      "explGround": false,
      "wormDestroy": false,
      "bloodOnHit": 5,
      "startFrame": 0,
      "numFrames": 0,
      "drawOnMap": true,
      "colorBullets": 121,
      "createOnExp": -1,
      "affectByExplosions": true,
      "dirtEffect": -1,
      "splinterAmount": 1,
      "splinterColour": 121,
      "splinterType": 25,
      "bloodTrail": false,
      "bloodTrailDelay": 0,
      "leaveObj": 4,
      "leaveObjDelay": 6,
      "timeToExplo": 100,
      "timeToExploV": 90,
      "immutable": false,
      "teamImmunity": 0,
      "id": 15,
      "name": "nid 15"
    },
    {
      // nid16
      "detectDistance": 3,
      "gravity": 0.07000000029802322,
      "speed": 2.4000000953674316,
      "speedV": 1,
      "distribution": 0.3499999940395355,
      "blowAway": 0.019999999552965164,
      "bounce": 0.30000001192092896,
      "hitDamage": 1.2,
      "wormExplode": true,
      "explGround": true,
      "wormDestroy": true,
      "bloodOnHit": 0,
      "startFrame": 159,
      "numFrames": 5,
      "drawOnMap": false,
      "colorBullets": 0,
      "createOnExp": 3,
      "affectByExplosions": true,
      "dirtEffect": -1,
      "splinterAmount": 2,
      "splinterColour": 0,
      "splinterType": 12,
      "bloodTrail": false,
      "bloodTrailDelay": 0,
      "leaveObj": 71,
      "leaveObjDelay": 5,
      "timeToExplo": 40,
      "timeToExploV": 20,
      "immutable": false,
      "teamImmunity": 0,
      "id": 16,
      "name": "nid 16"
    },
    {
      // nid17 splinterType for nid9
      "detectDistance": 0,
      "gravity": 0,
      "speed": 2.4,
      "speedV": 0.5,
      "distribution": 0.030517578125,
      "blowAway": 0.10000000149011612,
      "bounce": 0,
      "hitDamage": 1.2,
      "wormExplode": true,
      "explGround": false,
      "wormDestroy": true,
      "bloodOnHit": 1,
      "startFrame": 0,
      "numFrames": 0,
      "drawOnMap": false,
      "colorBullets": 67,
      "createOnExp": 0,
      "affectByExplosions": true,
      "dirtEffect": -1,
      "splinterAmount": 30,
      "splinterColour": 0,
      "splinterType": 14,
      "bloodTrail": false,
      "bloodTrailDelay": 0,
      "leaveObj": -1,
      "leaveObjDelay": 0,
      "timeToExplo": 4,
      "timeToExploV": 3,
      "immutable": false,
      "teamImmunity": 0,
      "id": 17,
      "name": "nid 17"
    },
    {
      // nid18
      "detectDistance": 0,
      "gravity": 0,
      "speed": 0.20000000298023224,
      "speedV": 0,
      "distribution": 0,
      "blowAway": 0,
      "bounce": 0,
      "hitDamage": 0,
      "wormExplode": true,
      "explGround": true,
      "wormDestroy": true,
      "bloodOnHit": 0,
      "startFrame": 466,
      "numFrames": 0,
      "drawOnMap": true,
      "colorBullets": 0,
      "createOnExp": -1,
      "affectByExplosions": true,
      "dirtEffect": -1,
      "splinterAmount": 0,
      "splinterColour": 0,
      "splinterType": -1,
      "bloodTrail": false,
      "bloodTrailDelay": 0,
      "leaveObj": -1,
      "leaveObjDelay": 0,
      "timeToExplo": 7,
      "timeToExploV": 0,
      "immutable": false,
      "teamImmunity": 0,
      "id": 18,
      "name": "nid 18"
    },
    {
      // nid19
      "detectDistance": 0,
      "gravity": 0,
      "speed": 1.600000023841858,
      "speedV": 0.4000000059604645,
      "distribution": 0.5,
      "blowAway": 0,
      "bounce": 0,
      "hitDamage": 0,
      "wormExplode": true,
      "explGround": true,
      "wormDestroy": true,
      "bloodOnHit": 0,
      "startFrame": 181,
      "numFrames": 3,
      "drawOnMap": true,
      "colorBullets": 0,
      "createOnExp": -1,
      "affectByExplosions": true,
      "dirtEffect": 2,
      "splinterAmount": 0,
      "splinterColour": 0,
      "splinterType": -1,
      "bloodTrail": false,
      "bloodTrailDelay": 0,
      "leaveObj": -1,
      "leaveObjDelay": 0,
      "timeToExplo": 17,
      "timeToExploV": 1,
      "immutable": false,
      "teamImmunity": 0,
      "id": 19,
      "name": "nid 19"
    },
    {
      // nid20
      "detectDistance": 3,
      "gravity": 0.0152587890625,
      "speed": 0,
      "speedV": 0,
      "distribution": 0,
      "blowAway": 0,
      "bounce": 0.4000000059604645,
      "hitDamage": 0,
      "wormExplode": false,
      "explGround": false,
      "wormDestroy": false,
      "bloodOnHit": 0,
      "startFrame": 213,
      "numFrames": 0,
      "drawOnMap": false,
      "colorBullets": 0,
      "createOnExp": -1,
      "affectByExplosions": true,
      "dirtEffect": -1,
      "splinterAmount": 0,
      "splinterColour": 0,
      "splinterType": -1,
      "bloodTrail": false,
      "bloodTrailDelay": 0,
      "leaveObj": -1,
      "leaveObjDelay": 0,
      "timeToExplo": 0,
      "timeToExploV": 0,
      "immutable": false,
      "teamImmunity": 0,
      "id": 20,
      "name": "nid 20"
    },
    {
      // nid21
      "detectDistance": 3,
      "gravity": 0.0152587890625,
      "speed": 0,
      "speedV": 0,
      "distribution": 0,
      "blowAway": 0,
      "bounce": 0.4000000059604645,
      "hitDamage": 0,
      "wormExplode": false,
      "explGround": false,
      "wormDestroy": false,
      "bloodOnHit": 0,
      "startFrame": 214,
      "numFrames": 0,
      "drawOnMap": false,
      "colorBullets": 0,
      "createOnExp": -1,
      "affectByExplosions": true,
      "dirtEffect": -1,
      "splinterAmount": 0,
      "splinterColour": 0,
      "splinterType": -1,
      "bloodTrail": false,
      "bloodTrailDelay": 0,
      "leaveObj": -1,
      "leaveObjDelay": 0,
      "timeToExplo": 0,
      "timeToExploV": 0,
      "immutable": false,
      "teamImmunity": 0,
      "id": 21,
      "name": "nid 21"
    },
    {
      // nid22
      "detectDistance": 2,
      "gravity": 0.05000000074505806,
      "speed": 2,
      "speedV": 0.699999988079071,
      "distribution": 0.25,
      "blowAway": 0.12999999523162842,
      "bounce": 0.20000000298023224,
      "hitDamage": 6,
      "wormExplode": true,
      "explGround": true,
      "wormDestroy": true,
      "bloodOnHit": 5,
      "startFrame": 462,
      "numFrames": 3,
      "drawOnMap": false,
      "colorBullets": 0,
      "createOnExp": 1,
      "affectByExplosions": true,
      "dirtEffect": -1,
      "splinterAmount": 3,
      "splinterColour": 0,
      "splinterType": 14,
      "bloodTrail": false,
      "bloodTrailDelay": 0,
      "leaveObj": -1,
      "leaveObjDelay": 0,
      "timeToExplo": 300,
      "timeToExploV": 120,
      "immutable": false,
      "teamImmunity": 0,
      "id": 22,
      "name": "nid 22"
    },
    {
      // nid23
      "detectDistance": 0,
      "gravity": 0,
      "speed": 1.5,
      "speedV": 1,
      "distribution": 0.5,
      "blowAway": 0,
      "bounce": 0.5,
      "hitDamage": 1.2,
      "wormExplode": false,
      "explGround": false,
      "wormDestroy": false,
      "bloodOnHit": 0,
      "startFrame": 178,
      "numFrames": 0,
      "drawOnMap": false,
      "colorBullets": 0,
      "createOnExp": 0,
      "affectByExplosions": false,
      "dirtEffect": 2,
      "splinterAmount": 3,
      "splinterColour": 75,
      "splinterType": 56,
      "bloodTrail": false,
      "bloodTrailDelay": 0,
      "leaveObj": 0,
      "leaveObjDelay": 0,
      "timeToExplo": 2,
      "timeToExploV": 1,
      "immutable": false,
      "teamImmunity": 0,
      "id": 23,
      "name": "nid 23"
    },
    {
      // nid24
      "detectDistance": 0,
      "gravity": 0.01715087890625,
      "speed": 0.44999998807907104,
      "speedV": 0.44999998807907104,
      "distribution": 0.4999847412109375,
      "blowAway": 0.009999999776482582,
      "bounce": 0.05000000074505806,
      "hitDamage": 0,
      "wormExplode": false,
      "explGround": true,
      "wormDestroy": false,
      "bloodOnHit": 0,
      "startFrame": 0,
      "numFrames": 0,
      "drawOnMap": false,
      "colorBullets": 55,
      "createOnExp": -1,
      "affectByExplosions": false,
      "dirtEffect": -1,
      "splinterAmount": 0,
      "splinterColour": 0,
      "splinterType": -1,
      "bloodTrail": true,
      "bloodTrailDelay": 15,
      "leaveObj": -1,
      "leaveObjDelay": 0,
      "timeToExplo": 45,
      "timeToExploV": 45,
      "immutable": false,
      "teamImmunity": 0,
      "id": 24,
      "name": "nid 24"
    }
  ],
  "sObjects":
  [
    {
      // sid0 createOnExp for nid8 nid9 nid11 nid17 nid23
      "startSound": 74,
      "numSounds": 1,
      "animDelay": 3,
      "startFrame": 41,
      "numFrames": 10,
      "detectRange": 17,
      "damage": 13.2,
      "blowAway": 0.03500000014901161,
      "shadow": false,
      "shake": 0,
      "flash": 0,
      "dirtEffect": 0,
      "id": 0,
      "name": "sid 0"
    },
    {
      // sid1 createOnExp for nid22
      "startSound": 74,
      "numSounds": 0,
      "animDelay": 3,
      "startFrame": 41,
      "numFrames": 10,
      "detectRange": 17,
      "damage": 8.4,
      "blowAway": 0.014999999664723873,
      "shadow": false,
      "shake": 1,
      "flash": 2,
      "dirtEffect": 1,
      "id": 1,
      "name": "sid 1"
    },
    {
      // sid2 createOnExp for nid3 nid5
      "startSound": 36,
      "numSounds": 0,
      "animDelay": 3,
      "startFrame": 320,
      "numFrames": 7,
      "detectRange": 10,
      "damage": 4.8,
      "blowAway": 0.00800000037997961,
      "shadow": false,
      "shake": 0,
      "flash": 0,
      "dirtEffect": 2,
      "id": 2,
      "name": "sid 2"
    },
    {
      // sid3 createOnExp for nid16
      "startSound": -1,
      "numSounds": 0,
      "animDelay": 4,
      "startFrame": 64,
      "numFrames": 4,
      "detectRange": 0,
      "damage": 0,
      "blowAway": 0,
      "shadow": false,
      "shake": 0,
      "flash": 0,
      "dirtEffect": -1,
      "id": 3,
      "name": "sid 3"
    },
    {
      // sid4
      "startSound": -1,
      "numSounds": 0,
      "animDelay": 4,
      "startFrame": 100,
      "numFrames": 3,
      "detectRange": 0,
      "damage": 0,
      "blowAway": 0,
      "shadow": true,
      "shake": 6,
      "flash": 0,
      "dirtEffect": 5,
      "id": 4,
      "name": "sid 4"
    },
    {
      // sid5
      "startSound": -1,
      "numSounds": 0,
      "animDelay": 2,
      "startFrame": 104,
      "numFrames": 1,
      "detectRange": 0,
      "damage": 0,
      "blowAway": 0,
      "shadow": false,
      "shake": 0,
      "flash": 0,
      "dirtEffect": -1,
      "id": 5,
      "name": "sid 5"
    },
    {
      // sid6
      "startSound": -1,
      "numSounds": 0,
      "animDelay": 1,
      "startFrame": 76,
      "numFrames": 0,
      "detectRange": 0,
      "damage": 0,
      "blowAway": 0,
      "shadow": false,
      "shake": 1,
      "flash": 0,
      "dirtEffect": -1,
      "id": 6,
      "name": "sid 6"
    },
    {
      // sid7
      "startSound": -1,
      "numSounds": 0,
      "animDelay": 1,
      "startFrame": 91,
      "numFrames": 4,
      "detectRange": 0,
      "damage": 0,
      "blowAway": 0,
      "shadow": true,
      "shake": 0,
      "flash": 0,
      "dirtEffect": -1,
      "id": 7,
      "name": "sid 7"
    },
    {
      // sid8
      "startSound": -1,
      "numSounds": 0,
      "animDelay": 2,
      "startFrame": 45,
      "numFrames": 6,
      "detectRange": 8,
      "damage": 1.2,
      "blowAway": 0,
      "shadow": false,
      "shake": 0,
      "flash": 0,
      "dirtEffect": 2,
      "id": 8,
      "name": "sid 8"
    },
    {
      // sid9
      "startSound": -1,
      "numSounds": 0,
      "animDelay": 1,
      "startFrame": 78,
      "numFrames": 1,
      "detectRange": 0,
      "damage": 0,
      "blowAway": 0,
      "shadow": false,
      "shake": 0,
      "flash": 0,
      "dirtEffect": -1,
      "id": 9,
      "name": "sid 9"
    },
    {
      // sid10
      "startSound": -1,
      "numSounds": 0,
      "animDelay": 1,
      "startFrame": 108,
      "numFrames": 0,
      "detectRange": 6,
      "damage": 0.0010000000474974513,
      "blowAway": 0,
      "shadow": false,
      "shake": 1,
      "flash": 0,
      "dirtEffect": -1,
      "id": 10,
      "name": "sid 10"
    },
    {
      // sid11
      "startSound": -1,
      "numSounds": 0,
      "animDelay": 1,
      "startFrame": 106,
      "numFrames": 0,
      "detectRange": 6,
      "damage": 0.0010000000474974513,
      "blowAway": 0,
      "shadow": false,
      "shake": 1,
      "flash": 0,
      "dirtEffect": -1,
      "id": 11,
      "name": "sid 11"
    },
    {
      // sid12
      "startSound": -1,
      "numSounds": 0,
      "animDelay": 1,
      "startFrame": 105,
      "numFrames": 0,
      "detectRange": 0,
      "damage": 0,
      "blowAway": 0,
      "shadow": false,
      "shake": 1,
      "flash": 0,
      "dirtEffect": -1,
      "id": 12,
      "name": "sid 12"
    },
    {
      // sid13
      "startSound": -1,
      "numSounds": 0,
      "animDelay": 0,
      "startFrame": 0,
      "numFrames": 0,
      "detectRange": 0,
      "damage": 0,
      "blowAway": 0,
      "shadow": false,
      "shake": 0,
      "flash": 0,
      "dirtEffect": -1,
      "id": 13,
      "name": "sid 13"
    },
    {
      // sid14 createOnExp for wid0 createOnExp for nid12
      "startSound": 82,
      "numSounds": 4,
      "animDelay": 2,
      "startFrame": 266,
      "numFrames": 12,
      "detectRange": 0,
      "damage": 0,
      "blowAway": 0,
      "shadow": true,
      "shake": 4,
      "flash": 8,
      "dirtEffect": 54,
      "id": 14,
      "name": "sid 14"
    }
  ],
  "constants":
  {
    "minBounceUp": -5,
    "minBounceDown": 5,
    "minBounceHoriz": 0.5,
    "wormGravity": 0.037,
    "wormAcc": 0.2,
    "wormMaxVel": 0.89,
    "wormFricMult": 0.89,
    "jumpForce": 1.3,
    "bonusGravity": 0.02,
    "bonusBounce": 0,
    "bonusFlickerTime": 220,
    "bonusExplodeRisk": 250,
    "bonusHealthVar": 0,
    "bonusMinHealth": 20,
    "aimFric": 0.83,
    "aimAcc": 0.0029960562263391427,
    "aimMaxAngle": 1.45,
    "aimMinAngle": -1.45,
    "maxAimVel": 0.052430983960935,
    "ninjaropeGravity": 0.016,
    "nrThrowVel": 6.3,
    "nrForce": 0.135,
    "nrInitialLength": 5,
    "nrAttachLength": 2.5,
    "nrMinLength": 0.5,
    "nrMaxLength": 2,
    "nrAdjustVel": 1.5,
    "nrColourBegin": 64,
    "nrColourEnd": 67,
    "firstBloodColour": 80,
    "numBloodColours": 5,
    "bObjGravity": 0.07999999821186066,
    "splinterLarpaVelDiv": 3,
    "splinterCracklerVelDiv": 3,
    "fallDamageHoriz": 0,
    "fallDamageDown": 0,
    "fallDamageUp": 0,
    "hFallDamage": false,
    "hBonusReloadOnly": false,
    "noRope": false
  },
  "textures":
  [
    {
      "nDrawBack": true,
      "mFrame": 0,
      "sFrame": 73,
      "rFrame": 2,
      "id": 0,
      "name": "tid 0"
    },
    {
      "nDrawBack": true,
      "mFrame": 1,
      "sFrame": 73,
      "rFrame": 2,
      "id": 1,
      "name": "tid 1"
    },
    {
      "nDrawBack": true,
      "mFrame": 2,
      "sFrame": 73,
      "rFrame": 2,
      "id": 2,
      "name": "tid 2"
    },
    {
      "nDrawBack": true,
      "mFrame": 37,
      "sFrame": 73,
      "rFrame": 2,
      "id": 3,
      "name": "tid 3"
    },
    {
      "nDrawBack": false,
      "mFrame": 0,
      "sFrame": 87,
      "rFrame": 2,
      "id": 4,
      "name": "tid 4"
    },
    {
      "nDrawBack": true,
      "mFrame": 39,
      "sFrame": 73,
      "rFrame": 2,
      "id": 5,
      "name": "tid 5"
    },
    {
      "nDrawBack": false,
      "mFrame": 38,
      "sFrame": 82,
      "rFrame": 2,
      "id": 6,
      "name": "tid 6"
    },
    {
      "nDrawBack": true,
      "mFrame": 99,
      "sFrame": 73,
      "rFrame": 2,
      "id": 7,
      "name": "tid 7"
    },
    {
      "nDrawBack": true,
      "mFrame": 37,
      "sFrame": 73,
      "rFrame": 2,
      "id": 8,
      "name": "tid 8"
    },
    {
      "nDrawBack": false,
      "mFrame": 287,
      "sFrame": 288,
      "rFrame": 0,
      "id": 9,
      "name": "tid 9"
    },
    {
      "nDrawBack": false,
      "mFrame": 290,
      "sFrame": 288,
      "rFrame": 0,
      "id": 10,
      "name": "tid 10"
    },
    {
      "nDrawBack": false,
      "mFrame": 542,
      "sFrame": 87,
      "rFrame": 0,
      "id": 11,
      "name": "tid 11"
    },
    {
      "nDrawBack": true,
      "mFrame": 542,
      "sFrame": 73,
      "rFrame": 0,
      "id": 12,
      "name": "tid 12"
    },
    {
      "nDrawBack": false,
      "mFrame": 566,
      "sFrame": 567,
      "rFrame": 0,
      "id": 13,
      "name": "tid 13"
    },
    {
      "nDrawBack": false,
      "mFrame": 0,
      "sFrame": 73,
      "rFrame": 2,
      "id": 14,
      "name": "tid 14"
    },
    {
      "nDrawBack": true,
      "mFrame": 542,
      "sFrame": 73,
      "rFrame": 2,
      "id": 15,
      "name": "tid 15"
    },
    {
      "nDrawBack": false,
      "mFrame": 679,
      "sFrame": 680,
      "rFrame": 0,
      "id": 16,
      "name": "tid 16"
    },
    {
      "nDrawBack": false,
      "mFrame": 681,
      "sFrame": 87,
      "rFrame": 2,
      "id": 17,
      "name": "tid 17"
    },
    {
      "nDrawBack": false,
      "mFrame": 328,
      "sFrame": 73,
      "rFrame": 2,
      "id": 18,
      "name": "tid 18"
    },
    {
      "nDrawBack": true,
      "mFrame": 738,
      "sFrame": 73,
      "rFrame": 2,
      "id": 19,
      "name": "tid 19"
    },
    {
      "nDrawBack": false,
      "mFrame": 740,
      "sFrame": 741,
      "rFrame": 2,
      "id": 20,
      "name": "tid 20"
    },
    {
      "nDrawBack": false,
      "mFrame": 763,
      "sFrame": 73,
      "rFrame": 2,
      "id": 21,
      "name": "tid 21"
    },
    {
      "nDrawBack": true,
      "mFrame": 738,
      "sFrame": 73,
      "rFrame": 2,
      "id": 22,
      "name": "tid 22"
    },
    {
      "nDrawBack": false,
      "mFrame": 783,
      "sFrame": 87,
      "rFrame": 2,
      "id": 23,
      "name": "tid 23"
    },
    {
      "nDrawBack": true,
      "mFrame": 783,
      "sFrame": 73,
      "rFrame": 2,
      "id": 24,
      "name": "tid 24"
    },
    {
      "nDrawBack": true,
      "mFrame": 833,
      "sFrame": 73,
      "rFrame": 2,
      "id": 25,
      "name": "tid 25"
    },
    {
      "nDrawBack": true,
      "mFrame": 834,
      "sFrame": 73,
      "rFrame": 2,
      "id": 26,
      "name": "tid 26"
    },
    {
      "nDrawBack": true,
      "mFrame": 839,
      "sFrame": 73,
      "rFrame": 2,
      "id": 27,
      "name": "tid 27"
    },
    {
      "nDrawBack": true,
      "mFrame": 896,
      "sFrame": 73,
      "rFrame": 2,
      "id": 28,
      "name": "tid 28"
    },
    {
      "nDrawBack": false,
      "mFrame": 681,
      "sFrame": 87,
      "rFrame": 0,
      "id": 29,
      "name": "tid 29"
    },
    {
      "nDrawBack": true,
      "mFrame": 913,
      "sFrame": 73,
      "rFrame": 0,
      "id": 30,
      "name": "tid 30"
    },
    {
      "nDrawBack": false,
      "mFrame": 932,
      "sFrame": 87,
      "rFrame": 0,
      "id": 31,
      "name": "tid 31"
    },
    {
      "nDrawBack": true,
      "mFrame": 931,
      "sFrame": 73,
      "rFrame": 0,
      "id": 32,
      "name": "tid 32"
    },
    {
      "nDrawBack": false,
      "mFrame": 950,
      "sFrame": 87,
      "rFrame": 1,
      "id": 33,
      "name": "tid 33"
    },
    {
      "nDrawBack": true,
      "mFrame": 950,
      "sFrame": 73,
      "rFrame": 0,
      "id": 34,
      "name": "tid 34"
    },
    {
      "nDrawBack": false,
      "mFrame": 966,
      "sFrame": 87,
      "rFrame": 0,
      "id": 35,
      "name": "tid 35"
    },
    {
      "nDrawBack": true,
      "mFrame": 966,
      "sFrame": 73,
      "rFrame": 0,
      "id": 36,
      "name": "tid 36"
    },
    {
      "nDrawBack": true,
      "mFrame": 1002,
      "sFrame": 73,
      "rFrame": 2,
      "id": 37,
      "name": "tid 37"
    },
    {
      "nDrawBack": false,
      "mFrame": 1032,
      "sFrame": 87,
      "rFrame": 0,
      "id": 38,
      "name": "tid 38"
    },
    {
      "nDrawBack": true,
      "mFrame": 1032,
      "sFrame": 73,
      "rFrame": 0,
      "id": 39,
      "name": "tid 39"
    },
    {
      "nDrawBack": true,
      "mFrame": 321,
      "sFrame": 73,
      "rFrame": 0,
      "id": 40,
      "name": "tid 40"
    },
    {
      "nDrawBack": false,
      "mFrame": 321,
      "sFrame": 87,
      "rFrame": 0,
      "id": 41,
      "name": "tid 41"
    },
    {
      "nDrawBack": true,
      "mFrame": 584,
      "sFrame": 73,
      "rFrame": 2,
      "id": 42,
      "name": "tid 42"
    },
    {
      "nDrawBack": true,
      "mFrame": 585,
      "sFrame": 73,
      "rFrame": 2,
      "id": 43,
      "name": "tid 43"
    },
    {
      "nDrawBack": true,
      "mFrame": 372,
      "sFrame": 73,
      "rFrame": 2,
      "id": 44,
      "name": "tid 44"
    },
    {
      "nDrawBack": true,
      "mFrame": 376,
      "sFrame": 73,
      "rFrame": 2,
      "id": 45,
      "name": "tid 45"
    },
    {
      "nDrawBack": false,
      "mFrame": 377,
      "sFrame": 73,
      "rFrame": 2,
      "id": 46,
      "name": "tid 46"
    },
    {
      "nDrawBack": true,
      "mFrame": 380,
      "sFrame": 73,
      "rFrame": 2,
      "id": 47,
      "name": "tid 47"
    },
    {
      "nDrawBack": false,
      "mFrame": 380,
      "sFrame": 87,
      "rFrame": 2,
      "id": 48,
      "name": "tid 48"
    },
    {
      "nDrawBack": false,
      "mFrame": 392,
      "sFrame": 87,
      "rFrame": 0,
      "id": 49,
      "name": "tid 49"
    },
    {
      "nDrawBack": true,
      "mFrame": 407,
      "sFrame": 73,
      "rFrame": 0,
      "id": 50,
      "name": "tid 50"
    },
    {
      "nDrawBack": false,
      "mFrame": 421,
      "sFrame": 73,
      "rFrame": 2,
      "id": 51,
      "name": "tid 51"
    },
    {
      "nDrawBack": false,
      "mFrame": 456,
      "sFrame": 457,
      "rFrame": 0,
      "id": 52,
      "name": "tid 52"
    },
    {
      "nDrawBack": true,
      "mFrame": 594,
      "sFrame": 73,
      "rFrame": 2,
      "id": 53,
      "name": "tid 53"
    },
    {
      "nDrawBack": false,
      "mFrame": 279,
      "sFrame": 73,
      "rFrame": 2,
      "id": 54,
      "name": "tid 54"
    }
  ],
  "behaviors":
  [
    {
      "id": 0,
      "name": "pawnee west",
      "update": "let owner  = api.getOwner(this);\nif(!owner) return api.killObject(this);\nthis.x = owner.x;\nthis.y = owner.y;\n\n"
    }
  ],
  "colorAnim":
  [
  ],
  "textSpritesStartIdx": 240,
  "crossHairSprite": 153,
  "soundpack": "https://www.vgm-quiz.com/dev/webliero/wledit/sp/1672353156.zip",
  "name": "$pawnee",
  "author": "Larcelo",
  "version": "v161"
}