{
  "weapons":
  [
  ],
  "wObjects":
  [
    {
      // wid0
      "detectDistance": 0,
      "blowAway": 0,
      "gravity": 0,
      "exploSound": 0,
      "addSpeed": 0,
      "distribution": 0,
      "multSpeed": 1,
      "createOnExp": -1,
      "dirtEffect": -1,
      "wormExplode": false,
      "explGround": false,
      "wormCollide": false,
      "collideWithObjects": false,
      "affectByExplosions": false,
      "bounce": 0,
      "bounceFriction": 0,
      "timeToExplo": 0,
      "timeToExploV": 0,
      "hitDamage": 0,
      "bloodOnHit": 0,
      "startFrame": 17,
      "numFrames": 5,
      "loopAnim": false,
      "shotType": 0,
      "repeat": 0,
      "colorBullets": 100,
      "splinterAmount": 0,
      "splinterColour": 0,
      "splinterType": -1,
      "splinterScatter": 0,
      "objTrailType": -1,
      "objTrailDelay": 0,
      "partTrailType": 0,
      "partTrailObj": 0,
      "partTrailDelay": 300,
      "speed": 300,
      "immutable": true,
      "fixed": false,
      "platform": true,
      "removeOnSObject": false,
      "teamImmunity": 0,
      "detonable": false,
      "id": 0,
      "name": "u96_heli",
      "behavior": 0,
      "platformWidth": 70,
      "platformHeight": 5,
      "platformVelocityAuto": false
    }
  ],
  "nObjects":
  [
    {
      // nid0
      "detectDistance": 0,
      "gravity": 0.05,
      "speed": 0,
      "speedV": 0,
      "distribution": 0,
      "blowAway": 0,
      "bounce": 0,
      "hitDamage": 0,
      "wormExplode": false,
      "explGround": true,
      "wormDestroy": false,
      "bloodOnHit": 0,
      "startFrame": 29,
      "numFrames": 7,
      "drawOnMap": false,
      "colorBullets": 0,
      "createOnExp": 0,
      "affectByExplosions": false,
      "dirtEffect": -1,
      "splinterAmount": 30,
      "splinterColour": 0,
      "splinterType": 1,
      "bloodTrail": false,
      "bloodTrailDelay": 0,
      "leaveObj": -1,
      "leaveObjDelay": 0,
      "timeToExplo": 0,
      "timeToExploV": 0,
      "immutable": true,
      "teamImmunity": 0,
      "id": 0,
      "name": "nid 0"
    },
    {
      // nid1 splinterType for nid0
      "detectDistance": 0,
      "gravity": -0.1,
      "speed": 3,
      "speedV": 3,
      "distribution": 0,
      "blowAway": 0,
      "bounce": 0,
      "hitDamage": 0,
      "wormExplode": false,
      "explGround": false,
      "wormDestroy": false,
      "bloodOnHit": 0,
      "startFrame": 37,
      "numFrames": 15,
      "drawOnMap": false,
      "colorBullets": 0,
      "createOnExp": 0,
      "affectByExplosions": false,
      "dirtEffect": -1,
      "splinterAmount": 0,
      "splinterColour": "0",
      "splinterType": -1,
      "bloodTrail": false,
      "bloodTrailDelay": 0,
      "leaveObj": -1,
      "leaveObjDelay": 0,
      "timeToExplo": 6,
      "timeToExploV": 6,
      "immutable": true,
      "teamImmunity": 0,
      "id": 1,
      "name": "nid 1"
    }
  ],
  "sObjects":
  [
    {
      // sid0 createOnExp for nid0 nid1
      "startSound": 9,
      "numSounds": 4,
      "animDelay": 2,
      "startFrame": 37,
      "numFrames": 15,
      "detectRange": 25,
      "damage": 20,
      "blowAway": 0.04,
      "shadow": false,
      "shake": 0,
      "flash": 0,
      "dirtEffect": -1,
      "id": 0,
      "name": "sid 0"
    }
  ],
  "constants":
  {
  },
  "textures":
  [
    {
      "nDrawBack": true,
      "mFrame": 12,
      "sFrame": 13,
      "rFrame": 2,
      "id": 0,
      "name": "tid 0"
    },
    {
      "nDrawBack": false,
      "mFrame": 15,
      "sFrame": 16,
      "rFrame": 0,
      "id": 1,
      "name": "tid 1"
    }
  ],
  "behaviors":
  [
    {
      "id": 0,
      "name": "heli",
      "update": "[dir, frame] = api.unpack(this,'ii',[1, 0]);\nlet right = 0;\nlet left = 3.141592653589793;\nlet x = this.x;\n// check for wObjects collisions every 2 frames\nif(tick%2===0) {\n    if (dir) {\n        if (x>=420) {\n            // reverse\n            dir = 0;\n            api.setObjectDirection(this, left, 1);\n        }\n    } else {\n        if (x<=84) {\n            // reverse\n            dir = 1;\n            api.setObjectDirection(this, right, 1);\n        }\n        \n    }\n    frame=(frame==2?0:++frame);\n    api.setObjectFrame(this, frame+(dir?3:0));\n}\n\napi.pack(this,'ii',[dir, frame]);  "
    }
  ],
  "colorAnim":
  [
  ],
  "textSpritesStartIdx": "",
  "crossHairSprite": "",
  "name": "u96_heli",
  "author": "",
  "version": ""
}
