{
  "weapons":
  [
  ],
  "wObjects":
  [
    {
      // wid0
      "detectDistance": 0,
      "blowAway": 0,
      "gravity": 0,
      "exploSound": -1,
      "addSpeed": 0,
      "distribution": 0,
      "multSpeed": 0,
      "createOnExp": -1,
      "dirtEffect": -1,
      "wormExplode": false,
      "explGround": false,
      "wormCollide": false,
      "collideWithObjects": false,
      "affectByExplosions": false,
      "bounce": -1,
      "bounceFriction": 0,
      "timeToExplo": 0,
      "timeToExploV": 0,
      "hitDamage": 0,
      "bloodOnHit": 0,
      "startFrame": 1,
      "numFrames": 11,
      "loopAnim": false,
      "shotType": 0,
      "repeat": 1,
      "colorBullets": 0,
      "splinterAmount": 0,
      "splinterColour": 0,
      "splinterType": -1,
      "splinterScatter": 0,
      "objTrailType": -1,
      "objTrailDelay": 0,
      "partTrailType": 0,
      "partTrailObj": -1,
      "partTrailDelay": 1000,
      "speed": 0,
      "immutable": true,
      "name": "mg2r_eye",
      "id": 0,
      "teamImmunity": 0,
      "behavior": 0
    }
  ],
  "nObjects":
  [
    {
      // nid0 partTrailObj for wid0
      "detectDistance": 0,
      "gravity": 0,
      "speed": 0,
      "speedV": 0,
      "distribution": 0,
      "blowAway": 0,
      "bounce": 0,
      "hitDamage": 0,
      "wormExplode": false,
      "explGround": false,
      "wormDestroy": false,
      "bloodOnHit": 0,
      "startFrame": -1,
      "numFrames": 0,
      "drawOnMap": false,
      "colorBullets": 0,
      "createOnExp": -1,
      "affectByExplosions": false,
      "dirtEffect": -1,
      "splinterAmount": 0,
      "splinterColour": 0,
      "splinterType": -1,
      "bloodTrail": false,
      "bloodTrailDelay": 0,
      "leaveObj": 0,
      "leaveObjDelay": 16,
      "timeToExplo": 32,
      "timeToExploV": 0,
      "immutable": true,
      "id": 0,
      "name": "nid 0",
      "teamImmunity": 0
    }
  ],
  "sObjects":
  [
    {
      // sid0
      "startSound": 11,
      "numSounds": 0,
      "animDelay": 5,
      "startFrame": 1,
      "numFrames": 3,
      "detectRange": 0,
      "damage": 0,
      "blowAway": 0,
      "shadow": false,
      "shake": 0,
      "flash": 0,
      "dirtEffect": -1,
      "id": 0,
      "name": "sid 0"
    }
  ],
  "constants":
  {
  },
  "textures":
  [
  ],
  "behaviors":
  [
    {
      "id": 0,
      "name": "eye",
      "update": "[l, frame, idle, lastAnim] = api.unpack(this,'iiii',[0, 0, 0, -1]);\nlet x = this.x;\nlet frameAnim = {\n    0: \"closed\",\n    1: \"closing\",\n    2: \"closing\",\n    3: \"closing\",\n    4: \"closing\",\n    5: \"stable\",\n    6: \"right\",\n    7: \"right\",\n    8: \"right\",\n    9: \"left\",\n    10: \"left\",\n    11: \"left\",\n    \n};\nlet mulberry32= (a) => {\n      var t = a += 0x6D2B79F5;\n      t = Math.imul(t ^ t >>> 15, t | 1);\n      t ^= t + Math.imul(t ^ t >>> 7, t | 61);\n      return Math.round(((t ^ t >>> 14) >>> 0) / 4294967296 * 100);\n};\n\nlet anims = ['openEye','closeEye','goLeft','goRight','stabilize'];\nlet endAnim = () => {\n    idle= 0;\n    lastAnim = -1;\n};\nlet o = this;\nlet a = {\n  openEye : () => {\n    if(tick%3===0) return;\n    if (frame < 5) {\n        api.log(\"opening eye\");\n        ++frame;\n        api.setObjectFrame(o, frame);\n    } else if (frame !=5) {\n        frame= 0;\n        api.setObjectFrame(o, frame);\n    } else {\n        endAnim();\n    }\n},\ncloseEye : () => {\n    if(tick%3===0) return;\n    if (frame <= 5 && frame > 0) {\n        --frame;\n        api.setObjectFrame(o, frame);\n    } else if (frame !==0) {\n        frame= 5;\n        api.setObjectFrame(o, frame);\n    } else {\n        endAnim();\n    }\n},\ngoRight : () => {\n    if(tick%3===0) return;\n    if (frame >= 5 && frame < 8) {\n        ++frame;\n        api.setObjectFrame(o, frame);\n    } else if (frame !==8) {\n        frame= 6;\n        api.setObjectFrame(o, frame);\n    } else {\n        endAnim();\n    }\n},\ngoLeft: () => {\n    if(tick%3===0) return;\n    if (frame == 5) {\n        frame=9;\n        api.setObjectFrame(o, frame);\n    } else if (frame >= 9 && frame < 11) {\n        ++frame;\n        api.setObjectFrame(o, frame);\n    } else if (frame !==11) {\n        frame= 5;\n        api.setObjectFrame(o, frame);\n    } else {\n        endAnim();\n    }\n},\nstabilize: () => {\n    if(tick%4===0) return;\n    if ([\"closed\",\"closing\"].includes(frameAnim[frame])) {\n        ++frame;\n        api.setObjectFrame(o, frame);\n    } else if (\"right\"==frameAnim[frame]) {\n        --frame;\n        api.setObjectFrame(o, frame);\n    } else if (\"left\"==frameAnim[frame]) {\n        frame=(frame==9?5:frame-1);\n        api.setObjectFrame(o, frame);\n    } else {\n        endAnim();\n    }\n}};\n// check for wObjects collisions every 2 frames\n\n\n(() => {\n    if (l< 90) {\n        frame = 0;\n        api.setObjectFrame(o, frame);\n        return;\n    } else if (l<270) {\n        a.openEye();\n        return;\n    }\n    if (idle < 90) {\n        idle++;\n        return;\n    }\n    /*\n    api.log(`idddle ${idle} ${lastAnim}`);\n    if (lastAnim>=0) {\n        api.log(`anim ${anims[lastAnim]}`);\n    }*/\n    if (lastAnim<0) {\n        if (['closed', 'left', 'right'].includes(frameAnim[frame])) {\n            lastAnim = 4;\n        } else {\n           lastAnim = (mulberry32(tick)%(anims.length-1))+1; // ignore open   \n        }\n    }\n    if (typeof a[anims[lastAnim]] == 'function') {\n        a[anims[lastAnim]]();\n    } else {\n        api.log(`lastAnim ${lastAnim} anim ${anims[lastAnim]}`);\n    }\n\n    \n})();\n++l;\n\n\napi.pack(this,'iiii',[l, frame, idle, lastAnim]);  \n"
    }
  ],
  "colorAnim":
  [
  ],
  "textSpritesStartIdx": "",
  "crossHairSprite": "",
  "name": "MERGED MOD",
  "author": "",
  "version": ""
}