{
  "weapons":
  [
  ],
  "wObjects":
  [
    {
      // wid0
      "detectDistance": 0,
      "blowAway": 0,
      "gravity": 0,
      "exploSound": -1,
      "addSpeed": 0,
      "distribution": 0,
      "multSpeed": 1,
      "createOnExp": -1,
      "dirtEffect": -1,
      "wormExplode": false,
      "explGround": false,
      "wormCollide": false,
      "collideWithObjects": false,
      "affectByExplosions": false,
      "bounce": 0,
      "bounceFriction": 0,
      "timeToExplo": 0,
      "timeToExploV": 0,
      "hitDamage": 0,
      "bloodOnHit": 0,
      "startFrame": 1,
      "numFrames": 0,
      "loopAnim": false,
      "shotType": 0,
      "repeat": 0,
      "colorBullets": 0,
      "splinterAmount": 22,
      "splinterColour": 0,
      "splinterType": 0,
      "splinterScatter": 0,
      "objTrailType": -1,
      "objTrailDelay": 0,
      "partTrailType": 0,
      "partTrailObj": -1,
      "partTrailDelay": 0,
      "speed": 0,
      "immutable": true,
      "fixed": true,
      "id": 0,
      "name": "wid 0",
      "behavior": 0
    },
    {
      // wid1
      "detectDistance": 0,
      "blowAway": 0,
      "gravity": 0,
      "exploSound": -1,
      "addSpeed": 0,
      "distribution": 0,
      "multSpeed": 1,
      "createOnExp": -1,
      "dirtEffect": -1,
      "wormExplode": false,
      "explGround": false,
      "wormCollide": false,
      "collideWithObjects": false,
      "affectByExplosions": false,
      "bounce": 0,
      "bounceFriction": 0,
      "timeToExplo": 10000,
      "timeToExploV": 0,
      "hitDamage": 0,
      "bloodOnHit": 0,
      "startFrame": 1,
      "numFrames": 0,
      "loopAnim": false,
      "shotType": 0,
      "repeat": 1,
      "colorBullets": 0,
      "splinterAmount": 0,
      "splinterColour": 0,
      "splinterType": -1,
      "splinterScatter": 0,
      "objTrailType": -1,
      "objTrailDelay": 0,
      "partTrailType": 0,
      "partTrailObj": -1,
      "partTrailDelay": 0,
      "speed": 0,
      "immutable": true,
      "fixed": false,
      "id": 1,
      "name": "wid 1",
      "behavior": 1
    },
    {
      // wid2
      "detectDistance": 0,
      "blowAway": 0,
      "gravity": 0,
      "exploSound": -1,
      "addSpeed": 0,
      "distribution": 0,
      "multSpeed": 1,
      "createOnExp": -1,
      "dirtEffect": -1,
      "wormExplode": false,
      "explGround": false,
      "wormCollide": true,
      "collideWithObjects": false,
      "affectByExplosions": false,
      "bounce": 0,
      "bounceFriction": 0,
      "timeToExplo": 10000,
      "timeToExploV": 0,
      "hitDamage": 1,
      "bloodOnHit": 2,
      "startFrame": 6,
      "numFrames": 94,
      "loopAnim": false,
      "shotType": 0,
      "repeat": 1,
      "colorBullets": 0,
      "splinterAmount": 0,
      "splinterColour": 0,
      "splinterType": -1,
      "splinterScatter": 0,
      "objTrailType": -1,
      "objTrailDelay": 0,
      "partTrailType": 0,
      "partTrailObj": -1,
      "partTrailDelay": 0,
      "speed": 0,
      "immutable": true,
      "fixed": false,
      "id": 2,
      "name": "wid 2",
      "behavior": 2
    }
  ],
  "nObjects":
  [
    {
      // nid0 splinterType for wid0
      "detectDistance": 0,
      "gravity": 0.0152587890625,
      "speed": 1.2000000476837158,
      "speedV": 0.4000000059604645,
      "distribution": 0.1220703125,
      "blowAway": 0,
      "bounce": 0.10000000149011612,
      "hitDamage": 0,
      "wormExplode": false,
      "explGround": true,
      "wormDestroy": false,
      "bloodOnHit": 0,
      "startFrame": 2,
      "numFrames": 3,
      "drawOnMap": true,
      "colorBullets": 0,
      "createOnExp": -1,
      "affectByExplosions": false,
      "dirtEffect": -1,
      "splinterAmount": 0,
      "splinterColour": 0,
      "splinterType": -1,
      "bloodTrail": true,
      "bloodTrailDelay": 10,
      "leaveObj": -1,
      "leaveObjDelay": 0,
      "timeToExplo": 0,
      "timeToExploV": 0,
      "immutable": false,
      "teamImmunity": 0,
      "id": 0,
      "name": "nid 0"
    }
  ],
  "sObjects":
  [
  ],
  "constants":
  {
  },
  "textures":
  [
  ],
  "behaviors":
  [
    {
      "id": 0,
      "name": "ABW CHATBOX",
      "update": "let duration = 10*60;\nlet numLines = 8;\nlet spaceBetweenLines = 8;\nif(tick%duration) return; \nlet messages = [\n\"AlphaBlueWolf12: HI HI HI <3\",\n\"dsds💚[ASS]: salut\",\n\"Daro: i am uber drunk now\",\n\"roo: xD\",\n\"Fein: wb\",\n\"PACER: tfw obscure indie music\",\n\"SuckMyGauss: nuke nuke trek trek\",\n\"flagworm: HTF ANYONE??\",\n\"Ophi: true\",\n\"[str8]jambon: fu mofo\",\n\"Ophi: VGM-Q, go play!\",\n\"[str8]jambon: hej bro, u there?\",\n\"[str8]jambon: can you give me admin?\",\n\"[str8]jambon: I see\",\n\"SuckMyGauss: no nukes no mortar\",\n\"dsds💚[ASS]: f\",\n\"> lala has joined\",\n\"lala: brb\",\n\"> lala has left\",\n\"神風: yo\",\n\"SuckMyGauss: I AM NUMBER ONE\",\n\"SuckMyGauss: U NEED B\",\n\"> really cool guy has joined\",\n\"really cool guy: hello guys, nice to meet\",\" you\",\n\"SuckMyGauss: proxy = untalent\",\n\"dartelin: perkele\",\n\"wgetch: :O\",\n\"really cool guy: well done my friend\",\n\"marcel kroust: haaaha shiyt\",\n\"SuckMyGauss: scatter = fear\",\n\"SuckMyGauss: chuck chuck moves\",\n\"SnakeJulio: impossible with my ping\",\n\"lala: omg salezki is a liero god\",\n\"SnakeJulio: pathetic\",\n\"SnakeJulio: no is fun for me\",\n\"Daro: nie wiem moze ale to nie ma\",\" wplywu\",\n\"SnakeJulio: is easy for you win me,\",\n\" see all my moviments because my ping\",\n\"> lala has joined\",\n\"dsds💚[ASS]: lala!!\",\n\"lala: dsds!!\",\n\"lala: hi Momatinsky!\",\n\"lala: THOM is in the meeting xD\",\n\"lala: trooper never looks up xDD\",\n\"lala: Ophi is a new Liero champion!\",\n\"lala: brb\",\n\"> lala has left\",\n\"marcel kroust: albatar\",\n\"dsds[ASS]: f\",\n\"SuckMyGauss: lag armor\",\n\"Joseppi: indeed\",\n\"> lala has joined\",\n\"lala: XDDDDDDD\",\n\"lala: brb\",\n\"> lala has left\",\n\"flagworm: mine!\",\n\"wlooczykij: vbg\",\n\"SuckMyGauss: no Daniel\",\n\"SuckMyGauss: no Moofy\",\n\"SuckMyGauss: sucksuck\",\n\"agent47: gveggeg\",\n\"> lala has joined\",\n\"lala: THIS IS LIEEEEEROOOO\",\n\"Larcelo: nice to meet you!\",\n\"lala: fanny game, I mean funny xD\",\n\"lala: brb\",\n\"> lala has left\",\n\"TLS Handshake: g\",\n\"Alex S: egg\",\n\"Euroboy: EU STYLE\",\n\"SuckMyGauss: nuke nuke trek trek\",\n\"aksana: STOP\",\n\"Alex S: NOOOOOO\",\n\"matt_wsw: lag\",\n\"Dan: haha\",\n\"Sniper Parrot: I won\",\n\"PACER: I am so fucking normal\",\n\"Z: that's what she said\",\n\"trooper: lol\",\n\"SnakeJulio: bye so long\",\n\"Daro: it was fake wisnia\"\n];\nif(++this.data==messages.length) this.data=0;\nfor(let i=0;i<numLines;i++){\n    let o = api.createObject({\n        w: WID_1, \n        speed:0, angle:0,\n        x: this.x, y: this.y+i*spaceBetweenLines\n    });\n    api.unpack(o, 'iiS', [\n        duration,\n        1, // letter-spacing\n        messages[(this.data+i)%messages.length] // line of text\n    ]);\n}"
    },
    {
      "id": 1,
      "name": "floating text",
      "update": "/** display a floating line of text **/\n[duration, space, text] = api.unpack(this,'iiS',[0,1,'default text']);\nif(duration<0) return api.killObject(this);\nlet owner = api.getOwner(this);\nlet widths = {':':1,';':1,l:1,i:1,w:5,m:5};\nlet x=0;\nfor(let i=0;i<text.length;i++){\n    let C = text.charAt(i);\n    let c = text.charCodeAt(i);\n    if(c<32 || c>126) continue; // char not in sprites\n    if(C==':' || C==';') x+=1;\n    let o = api.createObject({\n        w: WID_2, data: c-32,\n        owner: owner ? owner.id : -1, parent:this,\n        speed:0, angle:0, x:this.x+x, y:this.y\n    });\n    if(C===' ') x+=2;\n    else if(widths[C]) x+=widths[C];\n    else if(c>=97) x+=3;\n    else x+=4;\n    x+=space;\n    api.setObjectLife(o,duration);\n    \n}\nduration = -1; // force kill this object\napi.pack(this,'iiS',[duration,space,text]);\n"
    },
    {
      "id": 2,
      "name": "floating char",
      "update": "/** display a floating character **/\n\n// sprites follow ascii table\n// sprite for space is at 296\n// we simply use this.data as the relative index,\n// and the wObject has startFrame 296\n// 94 symbols total\n\napi.setObjectFrame(this,this.data);"
    }
  ],
  "colorAnim":
  [
  ],
  "textSpritesStartIdx": "",
  "crossHairSprite": "",
  "name": "MERGED MOD",
  "author": "",
  "version": ""
}
