{
  "weapons":
  [
  ],
  "wObjects":
  [
    {
      // wid0
      "detectDistance": 20,
      "blowAway": 0,
      "gravity": 0,
      "exploSound": -1,
      "addSpeed": 0,
      "distribution": 0,
      "multSpeed": 1,
      "createOnExp": -1,
      "dirtEffect": -1,
      "wormExplode": false,
      "explGround": false,
      "wormCollide": false,
      "collideWithObjects": false,
      "affectByExplosions": false,
      "bounce": 0,
      "bounceFriction": 0.8,
      "timeToExplo": 0,
      "timeToExploV": 0,
      "hitDamage": 0.2,
      "bloodOnHit": 10,
      "startFrame": 1,
      "numFrames": 11,
      "loopAnim": false,
      "shotType": 0,
      "repeat": 1,
      "colorBullets": 0,
      "splinterAmount": 0,
      "splinterColour": 66,
      "splinterType": -1,
      "splinterScatter": 0,
      "objTrailType": -1,
      "objTrailDelay": 1,
      "partTrailType": 0,
      "partTrailObj": -1,
      "partTrailDelay": 0,
      "speed": 230,
      "immutable": true,
      "name": "ventilo",
      "id": 0,
      "teamImmunity": 0
    }
  ],
  "nObjects":
  [
    {
      // nid0 partTrailObj for wid0
      "detectDistance": 20,
      "gravity": 0,
      "speed": 0,
      "speedV": 0,
      "distribution": 0,
      "blowAway": 0,
      "bounce": 0,
      "hitDamage": 0.2,
      "wormExplode": false,
      "explGround": false,
      "wormDestroy": false,
      "bloodOnHit": 10,
      "startFrame": 1,
      "numFrames": 11,
      "drawOnMap": false,
      "colorBullets": 67,
      "createOnExp": -1,
      "affectByExplosions": false,
      "dirtEffect": 0,
      "splinterAmount": 0,
      "splinterColour": 100,
      "splinterType": -1,
      "bloodTrail": false,
      "bloodTrailDelay": 0,
      "leaveObj": -1,
      "leaveObjDelay": 0,
      "timeToExplo": 12,
      "timeToExploV": 0,
      "immutable": true,
      "id": 0,
      "name": "nid 0",
      "teamImmunity": 0
    }
  ],
  "sObjects":
  [
  ],
  "constants":
  {
  },
  "textures":
  [
    {
      "nDrawBack": true,
      "mFrame": 13,
      "sFrame": 14,
      "rFrame": 2,
      "id": 0,
      "name": "tid 0"
    }
  ],
  "colorAnim":
  [
  ],
  "textSpritesStartIdx": "",
  "crossHairSprite": "",
  "name": "ventilo",
  "author": "dsds",
  "version": "0.01a"
}
