{
  "weapons": [],
  "wObjects":
  [
    {
      // wid0
      "detectDistance": 6,
      "blowAway": 0,
      "gravity": 0,
      "exploSound": 5,
      "addSpeed": 0,
      "distribution": 0,
      "multSpeed": 1,
      "createOnExp": -1,
      "dirtEffect": -1,
      "wormExplode": true,
      "explGround": false,
      "wormCollide": true,
      "collideWithObjects": false,
      "affectByExplosions": false,
      "bounce": 0,
      "bounceFriction": 0.8,
      "timeToExplo": 0,
      "timeToExploV": 0,
      "hitDamage": 0,
      "bloodOnHit": 0,
      "startFrame": 1,
      "numFrames": 0,
      "loopAnim": true,
      "shotType": 0,
      "repeat": 1,
      "colorBullets": 0,
      "splinterAmount": 1,
      "splinterColour": 66,
      "splinterType": 0,
      "splinterScatter": 0,
      "objTrailType": -1,
      "objTrailDelay": 1,
      "partTrailType": 0,
      "partTrailObj": -1,
      "partTrailDelay": 5,
      "speed": 1,
      "immutable": true,
      "fixed": true,
      "name": "bonus",
      "id": 0,
      "teamImmunity": 0
    }
  ],
  "nObjects":
  [
    {
      // nid0 splinterType for wid0
      "detectDistance": 0,
      "gravity": 0,
      "speed": 0,
      "speedV": 0,
      "distribution": 0.152587890625,
      "blowAway": 0,
      "bounce": 0,
      "hitDamage": 0,
      "wormExplode": false,
      "explGround": false,
      "wormDestroy": false,
      "bloodOnHit": 0,
      "startFrame": 1,
      "numFrames": 5,
      "drawOnMap": false,
      "colorBullets": 67,
      "createOnExp": -1,
      "affectByExplosions": false,
      "dirtEffect": 0,
      "splinterAmount": 0,
      "splinterColour": 124,
      "splinterType": -1,
      "bloodTrail": false,
      "bloodTrailDelay": 0,
      "leaveObj": -1,
      "leaveObjDelay": 0,
      "timeToExplo": 12,
      "timeToExploV": 0,
      "immutable": true,
      "id": 0,
      "name": "nid 0",
      "teamImmunity": 0
    }
  ],
  "sObjects": [],
  "constants": {},
  "textures":
  [
    {
      "nDrawBack": true,
      "mFrame": 8,
      "sFrame": 9,
      "rFrame": 2,
      "id": 0,
      "name": "tid 0"
    }
  ],
  "colorAnim": [],
  "textSpritesStartIdx": "",
  "crossHairSprite": "",
  "name": "bonus",
  "author": "",
  "version": ""
}
