{
  "weapons":
  [
  ],
  "wObjects":
  [
    {
      // wid0
      "platform": true,
      "platformWidth": 28,
      "platformHeight": 23,
      "platformVelocityAuto": true,
      "detectDistance": 1,
      "blowAway": 0,
      "gravity": 0,
      "exploSound": -1,
      "addSpeed": 0,
      "distribution": 0,
      "multSpeed": 1,
      "createOnExp": -1,
      "dirtEffect": -1,
      "wormExplode": false,
      "explGround": false,
      "wormCollide": false,
      "collideWithObjects": false,
      "affectByExplosions": false,
      "bounce": 1,
      "bounceFriction": -1,
      "timeToExplo": 0,
      "timeToExploV": 0,
      "hitDamage": 0,
      "bloodOnHit": 0,
      "startFrame": 0,
      "numFrames": 0,
      "loopAnim": false,
      "shotType": 0,
      "repeat": 2,
      "colorBullets": 0,
      "splinterAmount": 0,
      "splinterColour": 0,
      "splinterType": -1,
      "splinterScatter": 0,
      "objTrailType": 0,
      "objTrailDelay": 1,
      "partTrailType": 0,
      "partTrailObj": 2,
      "partTrailDelay": 3,
      "speed": 100,
      "immutable": true,
      "name": "ufo1_small",
      "id": 0,
      "teamImmunity": 0,
      "behavior": 0
    }
  ],
  "nObjects":
  [
    {
      // nid0 partTrailObj for wid0 wid2 splinterType for nid1
      "detectDistance": 0,
      "gravity": 0,
      "speed": 0,
      "speedV": 0,
      "distribution": 0,
      "blowAway": 0,
      "bounce": 0,
      "hitDamage": 0,
      "wormExplode": false,
      "explGround": false,
      "wormDestroy": false,
      "bloodOnHit": 0,
      "startFrame": 0,
      "numFrames": 0,
      "drawOnMap": false,
      "colorBullets": 0,
      "createOnExp": 0,
      "affectByExplosions": false,
      "dirtEffect": 1,
      "splinterAmount": 0,
      "splinterColour": 0,
      "splinterType": -1,
      "bloodTrail": false,
      "bloodTrailDelay": 0,
      "leaveObj": 0,
      "leaveObjDelay": 1,
      "timeToExplo": 2,
      "timeToExploV": 0,
      "immutable": true,
      "id": 0,
      "name": "nid 0",
      "teamImmunity": 0
    },
    {
      // nid1 splinterType for nid2
      "detectDistance": 0,
      "gravity": 0,
      "speed": 0,
      "speedV": 0,
      "distribution": 0,
      "blowAway": 0,
      "bounce": 0,
      "hitDamage": 0,
      "wormExplode": false,
      "explGround": true,
      "wormDestroy": false,
      "bloodOnHit": 0,
      "startFrame": 0,
      "numFrames": 0,
      "drawOnMap": false,
      "colorBullets": 0,
      "createOnExp": 0,
      "affectByExplosions": false,
      "dirtEffect": 0,
      "splinterAmount": 1,
      "splinterColour": 0,
      "splinterType": 0,
      "bloodTrail": false,
      "bloodTrailDelay": 0,
      "leaveObj": -1,
      "leaveObjDelay": 0,
      "timeToExplo": 2,
      "timeToExploV": 0,
      "immutable": true,
      "id": 1,
      "name": "nid 1",
      "teamImmunity": 0
    },
    {
      // nid2 partTrailObj for wid0
      "detectDistance": 10,
      "gravity": 0,
      "speed": 0,
      "speedV": 0,
      "distribution": 0,
      "blowAway": 0,
      "bounce": 0,
      "hitDamage": 0,
      "wormExplode": false,
      "explGround": true,
      "wormDestroy": false,
      "bloodOnHit": 0,
      "startFrame": 0,
      "numFrames": 0,
      "drawOnMap": false,
      "colorBullets": 0,
      "createOnExp": 0,
      "affectByExplosions": false,
      "dirtEffect": 0,
      "splinterAmount": 1,
      "splinterColour": 0,
      "splinterType": 1,
      "bloodTrail": false,
      "bloodTrailDelay": 0,
      "leaveObj": 0,
      "leaveObjDelay": 1,
      "timeToExplo": 2,
      "timeToExploV": 0,
      "immutable": true,
      "id": 2,
      "name": "nid 2",
      "teamImmunity": 0
    }
  ],
  "sObjects":
  [
    {
      // sid0 objTrailType for wid0 createOnExp for nid0 nid1 nid2
      "startSound": -1,
      "numSounds": 0,
      "animDelay": 1,
      "startFrame": 0,
      "numFrames": 0,
      "detectRange": 0,
      "damage": 0,
      "blowAway": 0,
      "shadow": true,
      "shake": 0,
      "flash": 0,
      "dirtEffect": -1,
      "id": 0,
      "name": "sid 0"
    }
  ],
  "constants":
  {
  },
  "textures":
  [
    {
      "nDrawBack": false,
      "mFrame": 1,
      "sFrame": 2,
      "rFrame": 1,
      "id": 0,
      "name": "tid 0"
    },
    {
      "nDrawBack": true,
      "mFrame": 1,
      "sFrame": 3,
      "rFrame": 1,
      "id": 1,
      "name": "tid 1"
    }
  ],
  "behaviors":
  [
    {
      "id": 0,
      "name": "ufo1_small_platform",
      "update": "[dir] = api.unpack(this,'i',[1]);\nlet left = 3.141592653589793;\nlet right = 0;\nlet x = this.x;\nlet speed = 1/(tick%10);\nif (!speed || !Number.isFinite(speed)) speed=0.15;\n\n// check for wObjects collisions every 2 frames\nif(tick%2===0) {\n    if (dir) {\n        if (x>=480) { \n            // reverse\n            dir = 0;\n            api.setObjectDirection(this, left, speed);\n        }\n        api.setObjectSpeed(this, speed);\n    } else {\n        if (x<=54) {\n            // reverse\n            dir = 1;\n            api.setObjectDirection(this, right, speed);\n        }\n        api.setObjectSpeed(this, speed);\n        \n    }\n//    frame=(frame==2?0:++frame);\n   // api.setObjectFrame(this, frame+(dir?3:0));\n}\n\napi.pack(this,'i',[dir]);  "
    }
  ],
  "colorAnim":
  [
  ],
  "textSpritesStartIdx": "",
  "crossHairSprite": "",
  "name": "MERGED MOD",
  "author": "",
  "version": ""
}