{
  "weapons":
  [
  ],
  "wObjects":
  [
    {
      // wid0
      "detectDistance": 1,
      "blowAway": 0,
      "gravity": 0.01,
      "exploSound": -1,
      "addSpeed": 0,
      "distribution": 0,
      "multSpeed": 1,
      "createOnExp": -1,
      "dirtEffect": -1,
      "wormExplode": false,
      "explGround": false,
      "wormCollide": false,
      "collideWithObjects": false,
      "affectByExplosions": false,
      "bounce": 0.4,
      "bounceFriction": 0.8,
      "timeToExplo": 28800,
      "timeToExploV": 0,
      "hitDamage": 0,
      "bloodOnHit": 0,
      "startFrame": 1,
      "numFrames": 7,
      "loopAnim": true,
      "shotType": 0,
      "repeat": 1,
      "colorBullets": "0",
      "splinterAmount": 0,
      "splinterColour": 0,
      "splinterType": -1,
      "splinterScatter": 0,
      "objTrailType": -1,
      "objTrailDelay": 0,
      "partTrailType": 0,
      "partTrailObj": -1,
      "partTrailDelay": 0,
      "speed": 0,
      "id": 0,
      "behavior": 0,
      "name": "bomb",
      "teamImmunity": 0,
      "immutable": true
    },
    {
      // wid1
      "detectDistance": 0,
      "blowAway": 0,
      "gravity": 0,
      "exploSound": -1,
      "addSpeed": 0,
      "distribution": 0,
      "multSpeed": 1,
      "createOnExp": -1,
      "dirtEffect": -1,
      "wormExplode": false,
      "explGround": false,
      "wormCollide": false,
      "collideWithObjects": false,
      "affectByExplosions": false,
      "bounce": 0,
      "bounceFriction": 0,
      "timeToExplo": 0,
      "timeToExploV": 0,
      "hitDamage": 0,
      "bloodOnHit": 0,
      "startFrame": 1,
      "numFrames": 1,
      "loopAnim": false,
      "shotType": 0,
      "repeat": 1,
      "colorBullets": 0,
      "splinterAmount": 0,
      "splinterColour": 0,
      "splinterType": -1,
      "splinterScatter": 0,
      "objTrailType": -1,
      "objTrailDelay": 0,
      "partTrailType": 0,
      "partTrailObj": -1,
      "partTrailDelay": 0,
      "speed": 300,
      "immutable": true,
      "id": 1,
      "name": "bomb_beacon",
      "teamImmunity": 0,
      "behavior": 1,
      "beacon": true
    },
    {
      // wid2
      "detectDistance": 40,
      "blowAway": 0,
      "gravity": 0,
      "exploSound": -1,
      "addSpeed": 0,
      "distribution": 0,
      "multSpeed": 0,
      "createOnExp": -1,
      "dirtEffect": -1,
      "wormExplode": false,
      "explGround": false,
      "wormCollide": false,
      "collideWithObjects": false,
      "affectByExplosions": false,
      "bounce": 1,
      "bounceFriction": 1,
      "timeToExplo": 0,
      "timeToExploV": 0,
      "hitDamage": 0,
      "bloodOnHit": 0,
      "startFrame": -1,
      "numFrames": 0,
      "loopAnim": false,
      "shotType": 4,
      "repeat": 8,
      "colorBullets": 0,
      "splinterAmount": 0,
      "splinterColour": 0,
      "splinterType": -1,
      "splinterScatter": 0,
      "objTrailType": -1,
      "objTrailDelay": 0,
      "partTrailType": 0,
      "partTrailObj": 0,
      "partTrailDelay": 1,
      "speed": 300,
      "immutable": true,
      "id": 2,
      "name": "planting_zone",
      "teamImmunity": 0,
      "behavior": 5
    },
    {
      // wid3
      "detectDistance": 40,
      "blowAway": 0,
      "gravity": 0,
      "exploSound": -1,
      "addSpeed": 0,
      "distribution": 0,
      "multSpeed": 0,
      "createOnExp": -1,
      "dirtEffect": -1,
      "wormExplode": false,
      "explGround": false,
      "wormCollide": false,
      "collideWithObjects": false,
      "affectByExplosions": false,
      "bounce": 1,
      "bounceFriction": 1,
      "timeToExplo": 0,
      "timeToExploV": 0,
      "hitDamage": 0,
      "bloodOnHit": 0,
      "startFrame": -1,
      "numFrames": 0,
      "loopAnim": false,
      "shotType": 4,
      "repeat": 4,
      "colorBullets": 0,
      "splinterAmount": 0,
      "splinterColour": 0,
      "splinterType": -1,
      "splinterScatter": 0,
      "objTrailType": -1,
      "objTrailDelay": 0,
      "partTrailType": 0,
      "partTrailObj": 1,
      "partTrailDelay": 1,
      "speed": 300,
      "immutable": true,
      "id": 3,
      "name": "relocation_zone",
      "teamImmunity": 0,
      "behavior": -1
    },
    {
      // wid4
      "detectDistance": 0,
      "blowAway": 0,
      "gravity": 0,
      "exploSound": -1,
      "addSpeed": 0,
      "distribution": 0,
      "multSpeed": 1,
      "createOnExp": -1,
      "dirtEffect": -1,
      "wormExplode": false,
      "explGround": false,
      "wormCollide": false,
      "collideWithObjects": false,
      "affectByExplosions": false,
      "bounce": 0,
      "bounceFriction": 0,
      "timeToExplo": 3600,
      "timeToExploV": 0,
      "hitDamage": 0,
      "bloodOnHit": 0,
      "startFrame": -1,
      "numFrames": 0,
      "loopAnim": false,
      "shotType": 0,
      "repeat": 1,
      "colorBullets": 0,
      "splinterAmount": 0,
      "splinterColour": 0,
      "splinterType": -1,
      "splinterScatter": 0,
      "objTrailType": -1,
      "objTrailDelay": 0,
      "partTrailType": 0,
      "partTrailObj": -1,
      "partTrailDelay": 0,
      "speed": 0,
      "immutable": true,
      "behavior": 2,
      "id": 4,
      "name": "bomb counter stage1",
      "teamImmunity": 0
    },
    {
      // wid5
      "detectDistance": 0,
      "blowAway": 0,
      "gravity": 0,
      "exploSound": -1,
      "addSpeed": 0,
      "distribution": 0,
      "multSpeed": 1,
      "createOnExp": -1,
      "dirtEffect": -1,
      "wormExplode": false,
      "explGround": false,
      "wormCollide": false,
      "collideWithObjects": false,
      "affectByExplosions": false,
      "bounce": 0,
      "bounceFriction": 0,
      "timeToExplo": 1000,
      "timeToExploV": 0,
      "hitDamage": 0,
      "bloodOnHit": 0,
      "startFrame": -1,
      "numFrames": 0,
      "loopAnim": false,
      "shotType": 0,
      "repeat": 1,
      "colorBullets": 0,
      "splinterAmount": 0,
      "splinterColour": 0,
      "splinterType": -1,
      "splinterScatter": 0,
      "objTrailType": -1,
      "objTrailDelay": 0,
      "partTrailType": 0,
      "partTrailObj": -1,
      "partTrailDelay": 0,
      "speed": 0,
      "immutable": true,
      "behavior": 3,
      "id": 5,
      "name": "bomb counter stage2",
      "teamImmunity": 0
    },
    {
      // wid6
      "detectDistance": 0,
      "blowAway": 0,
      "gravity": 0,
      "exploSound": -1,
      "addSpeed": 0,
      "distribution": 0,
      "multSpeed": 1,
      "createOnExp": -1,
      "dirtEffect": -1,
      "wormExplode": false,
      "explGround": false,
      "wormCollide": false,
      "collideWithObjects": false,
      "affectByExplosions": false,
      "bounce": 0,
      "bounceFriction": 0,
      "timeToExplo": 60,
      "timeToExploV": 0,
      "hitDamage": 0,
      "bloodOnHit": 0,
      "startFrame": 14,
      "numFrames": 94,
      "loopAnim": false,
      "shotType": 0,
      "repeat": 1,
      "colorBullets": 0,
      "splinterAmount": 0,
      "splinterColour": 0,
      "splinterType": -1,
      "splinterScatter": 0,
      "objTrailType": -1,
      "objTrailDelay": 0,
      "partTrailType": 0,
      "partTrailObj": -1,
      "partTrailDelay": 0,
      "speed": 0,
      "immutable": true,
      "behavior": 4,
      "id": 6,
      "name": "bomb counter stage3",
      "teamImmunity": 0
    },
    {
      // wid7
      "detectDistance": 0,
      "blowAway": 0,
      "gravity": 0,
      "exploSound": -1,
      "addSpeed": 0,
      "distribution": 0,
      "multSpeed": 0,
      "createOnExp": -1,
      "dirtEffect": -1,
      "wormExplode": false,
      "explGround": false,
      "wormCollide": false,
      "collideWithObjects": false,
      "affectByExplosions": false,
      "bounce": 1,
      "bounceFriction": 1,
      "timeToExplo": 3600,
      "timeToExploV": 0,
      "hitDamage": 0,
      "bloodOnHit": 0,
      "startFrame": 2,
      "numFrames": 0,
      "loopAnim": false,
      "shotType": 0,
      "repeat": 1,
      "colorBullets": 0,
      "splinterAmount": 0,
      "splinterColour": 0,
      "splinterType": -1,
      "splinterScatter": 0,
      "objTrailType": -1,
      "objTrailDelay": 0,
      "partTrailType": 0,
      "partTrailObj": -1,
      "partTrailDelay": 0,
      "speed": 300,
      "immutable": true,
      "id": 7,
      "name": "bomb2",
      "teamImmunity": 0,
      "behavior": 6
    }
  ],
  "nObjects":
  [
    {
      // nid0 partTrailObj for wid2
      "detectDistance": 10,
      "gravity": 0,
      "speed": 2,
      "speedV": 0,
      "distribution": 0,
      "blowAway": 0,
      "bounce": 0,
      "hitDamage": 0,
      "wormExplode": false,
      "explGround": true,
      "wormDestroy": false,
      "bloodOnHit": 0,
      "startFrame": 0,
      "numFrames": 0,
      "drawOnMap": false,
      "colorBullets": 0,
      "createOnExp": 0,
      "affectByExplosions": false,
      "dirtEffect": 0,
      "splinterAmount": 0,
      "splinterColour": 0,
      "splinterType": -1,
      "bloodTrail": false,
      "bloodTrailDelay": 0,
      "leaveObj": -1,
      "leaveObjDelay": 0,
      "timeToExplo": 8,
      "timeToExploV": 0,
      "immutable": true,
      "id": 0,
      "name": "nid 0",
      "teamImmunity": 0
    },
    {
      // nid1 partTrailObj for wid3
      "detectDistance": 10,
      "gravity": 0,
      "speed": 2,
      "speedV": 0,
      "distribution": 0,
      "blowAway": 0,
      "bounce": 0,
      "hitDamage": 0,
      "wormExplode": false,
      "explGround": true,
      "wormDestroy": false,
      "bloodOnHit": 0,
      "startFrame": 0,
      "numFrames": 0,
      "drawOnMap": false,
      "colorBullets": 0,
      "createOnExp": 1,
      "affectByExplosions": false,
      "dirtEffect": 0,
      "splinterAmount": 0,
      "splinterColour": 0,
      "splinterType": -1,
      "bloodTrail": false,
      "bloodTrailDelay": 0,
      "leaveObj": -1,
      "leaveObjDelay": 0,
      "timeToExplo": 8,
      "timeToExploV": 0,
      "immutable": true,
      "id": 1,
      "name": "nid 1",
      "teamImmunity": 0
    },
    {
      // nid2 splinterType for nid3
      "detectDistance": 1,
      "gravity": -0.05,
      "speed": 0,
      "speedV": 0,
      "distribution": 0.5,
      "blowAway": 0,
      "bounce": 1,
      "hitDamage": 0,
      "wormExplode": false,
      "explGround": false,
      "wormDestroy": false,
      "bloodOnHit": 0,
      "startFrame": 123,
      "numFrames": 3,
      "drawOnMap": false,
      "colorBullets": 0,
      "createOnExp": -1,
      "affectByExplosions": false,
      "dirtEffect": -1,
      "splinterAmount": 0,
      "splinterColour": 0,
      "splinterType": -1,
      "bloodTrail": false,
      "bloodTrailDelay": 0,
      "leaveObj": -1,
      "leaveObjDelay": 0,
      "timeToExplo": 30,
      "timeToExploV": 15,
      "id": 2,
      "name": "nid 2",
      "teamImmunity": 0
    },
    {
      // nid3 splinterType for nid4
      "detectDistance": 0,
      "gravity": 0,
      "speed": 0,
      "speedV": 0,
      "distribution": 0,
      "blowAway": 0,
      "bounce": 0,
      "hitDamage": 0,
      "wormExplode": false,
      "explGround": false,
      "wormDestroy": false,
      "bloodOnHit": 0,
      "startFrame": -1,
      "numFrames": 0,
      "drawOnMap": false,
      "colorBullets": 0,
      "createOnExp": -1,
      "affectByExplosions": false,
      "dirtEffect": -1,
      "splinterAmount": 1,
      "splinterColour": 0,
      "splinterType": 2,
      "bloodTrail": false,
      "bloodTrailDelay": 0,
      "leaveObj": -1,
      "leaveObjDelay": 0,
      "timeToExplo": 20,
      "timeToExploV": 10,
      "id": 3,
      "name": "nid 3",
      "teamImmunity": 0
    },
    {
      // nid4 splinterType for nid5
      "detectDistance": 0,
      "gravity": 0,
      "speed": 3,
      "speedV": 3,
      "distribution": 0,
      "blowAway": 0,
      "bounce": 0,
      "hitDamage": 0,
      "wormExplode": false,
      "explGround": true,
      "wormDestroy": false,
      "bloodOnHit": 0,
      "startFrame": 0,
      "numFrames": 0,
      "drawOnMap": false,
      "colorBullets": 0,
      "createOnExp": 2,
      "affectByExplosions": false,
      "dirtEffect": -1,
      "splinterAmount": 4,
      "splinterColour": 0,
      "splinterType": 3,
      "bloodTrail": false,
      "bloodTrailDelay": 0,
      "leaveObj": -1,
      "leaveObjDelay": 0,
      "timeToExplo": 5,
      "timeToExploV": 4,
      "immutable": true,
      "id": 4,
      "name": "nid 4",
      "teamImmunity": 0
    },
    {
      // nid5 splinterType for nid6
      "detectDistance": 3,
      "gravity": 0,
      "speed": 0,
      "speedV": 0,
      "distribution": 0.2,
      "blowAway": 0,
      "bounce": 0,
      "hitDamage": 120,
      "wormExplode": false,
      "explGround": true,
      "wormDestroy": false,
      "bloodOnHit": 2,
      "startFrame": 0,
      "numFrames": 0,
      "drawOnMap": false,
      "colorBullets": 0,
      "createOnExp": 2,
      "affectByExplosions": false,
      "dirtEffect": 1,
      "splinterAmount": 6,
      "splinterColour": 240,
      "splinterType": 4,
      "bloodTrail": false,
      "bloodTrailDelay": 0,
      "leaveObj": -1,
      "leaveObjDelay": 0,
      "timeToExplo": 50,
      "timeToExploV": 50,
      "immutable": true,
      "id": 5,
      "name": "nid 5",
      "teamImmunity": 0
    },
    {
      // nid6
      "detectDistance": 0,
      "gravity": 0,
      "speed": 16,
      "speedV": 10,
      "distribution": 0.4999847412109375,
      "blowAway": 0,
      "bounce": 0,
      "hitDamage": 0,
      "wormExplode": false,
      "explGround": true,
      "wormDestroy": false,
      "bloodOnHit": 2,
      "startFrame": 0,
      "numFrames": 0,
      "drawOnMap": false,
      "colorBullets": 0,
      "createOnExp": 2,
      "affectByExplosions": false,
      "dirtEffect": 1,
      "splinterAmount": 1,
      "splinterColour": 240,
      "splinterType": 5,
      "bloodTrail": false,
      "bloodTrailDelay": 0,
      "leaveObj": -1,
      "leaveObjDelay": 0,
      "timeToExplo": 1,
      "timeToExploV": 0,
      "immutable": true,
      "id": 6,
      "name": "nid 6",
      "teamImmunity": 0
    },
    {
      // nid7
      "detectDistance": 1,
      "gravity": 0,
      "speed": 0,
      "speedV": 0,
      "distribution": 0,
      "blowAway": 0,
      "bounce": 1,
      "hitDamage": 0,
      "wormExplode": false,
      "explGround": false,
      "wormDestroy": false,
      "bloodOnHit": 0,
      "startFrame": 0,
      "numFrames": 0,
      "drawOnMap": false,
      "colorBullets": 0,
      "createOnExp": 3,
      "affectByExplosions": false,
      "dirtEffect": -1,
      "splinterAmount": 0,
      "splinterColour": 0,
      "splinterType": -1,
      "bloodTrail": false,
      "bloodTrailDelay": 0,
      "leaveObj": -1,
      "leaveObjDelay": 0,
      "timeToExplo": 2,
      "timeToExploV": 0,
      "immutable": true,
      "id": 7,
      "name": "nid 7",
      "teamImmunity": 0
    }
  ],
  "sObjects":
  [
    {
      // sid0 createOnExp for nid0
      "startSound": -1,
      "numSounds": 0,
      "animDelay": 15,
      "startFrame": 9,
      "numFrames": 0,
      "detectRange": 0,
      "damage": 0,
      "blowAway": 0,
      "shadow": false,
      "shake": 0,
      "flash": 0,
      "dirtEffect": -1,
      "id": 0,
      "name": "sid 0"
    },
    {
      // sid1 createOnExp for nid1
      "startSound": -1,
      "numSounds": 0,
      "animDelay": 15,
      "startFrame": 13,
      "numFrames": 0,
      "detectRange": 0,
      "damage": 0,
      "blowAway": 0,
      "shadow": false,
      "shake": 0,
      "flash": 0,
      "dirtEffect": -1,
      "id": 1,
      "name": "sid 1"
    },
    {
      // sid2 createOnExp for nid4 nid5 nid6
      "startSound": 9,
      "numSounds": 4,
      "animDelay": 2,
      "startFrame": 109,
      "numFrames": 12,
      "detectRange": 20,
      "damage": 15,
      "blowAway": 0.035,
      "shadow": true,
      "shake": 4,
      "flash": 8,
      "dirtEffect": 1,
      "id": 2,
      "name": "sid 2"
    },
    {
      // sid3 createOnExp for nid7
      "startSound": 31,
      "numSounds": 0,
      "animDelay": 4,
      "startFrame": 127,
      "numFrames": 3,
      "detectRange": 0,
      "damage": 0,
      "blowAway": 0,
      "shadow": false,
      "shake": 0,
      "flash": 0,
      "dirtEffect": -1,
      "id": 3,
      "name": "sid 3"
    }
  ],
  "constants":
  {
  },
  "textures":
  [
    {
      "nDrawBack": true,
      "mFrame": 10,
      "sFrame": 11,
      "rFrame": 2,
      "id": 0,
      "name": "tid 0"
    },
    {
      "nDrawBack": true,
      "mFrame": 122,
      "sFrame": 11,
      "rFrame": 2,
      "id": 1,
      "name": "tid 1"
    }
  ],
  "behaviors":
  [
    {
      "id": 0,
      "name": "bombing",
      "postUpdate": "/** object works differently depending on which team the worm is **/\n[tid, wait2] = api.unpack(this, 'ii', [-1, 0]);\nconst RELOCATION_ZONE = WID_3;\nlet t = api.getPlayer(tid);\nlet x = this.x, y = this.y, drop, take;\nconst showMsg = (msg, color, duration) => {\n    api.getPlayers().forEach(p => {\n    api.showOverlayMessage(p.id, msg, color, duration);\n    });\n};\nif(life===2){\n    api.playSound(SNDID_33);\n    api.showOverlayMessage(null,\"Defuse The Bomb Mode Activated!\",\"#FFD700\",3);\n    api.createObject({\n        w: WID_1, // bomb beacon\n        speed: 0,\n        x: this.x, y: this.y,\n        parent: this\n        });\n}\nif(life===28800){\n    api.playSound(SNDID_32);\n    api.showOverlayMessage(null,\"Bomb did not explode, team Alpha wins!\",\"#00FF00\",3);\n    api.killObject(this);\n}\nif (tid > -1 && !t) {\n    tid = -1; // bomb carrier is dead\n    drop = 1;\n    api.setOwner(this, -1);\n}\nif (tid === -1) {\n    wait2++;\n    if (wait2 > 1800) {\n        api.getObjects('w').forEach(o => {\n            if (o.type.id === RELOCATION_ZONE) {\n                this.x = o.x;\n                this.y = o.y - 8; // relocate the bomb if no one picks it up for some time\n                showMsg('The bomb has been relocated!', \"#FFFFFF\", 0.5);\n            }\n        });\n        wait2 = -1;\n    }\n}\nif (!t) {\n    api.setOwner(this, -1);\n    let x = this.x, y = this.y;\n    api.getPlayers().forEach(p => {\n        if (drop === 1) showMsg('The bomb has been dropped!', \"#FFFFFF\", 0.5);\n        if (api.isTeam() && p.team < 2) return;\n        let dist = (p.x - x) * (p.x - x) + (p.y - y) * (p.y - y);\n        if (dist < 30) {\n            t = p;\n            tid = p.id;\n            take = 1;\n        }\n    });\n}\nif (t) {\n    this.x = t.x;\n    this.y = t.y - 8;\n    wait2 = -1;\n    api.setOwner(this, t.id);\n    let bombHolderName = api.getPlayerName(t);\n    if (take === 1) showMsg('The bomb has been taken by '+bombHolderName+'!', \"#FFFFFF\", 0.5);\n}\napi.pack(this, 'ii', [tid, wait2]); // save data changes",
      "init": "api.setObjectFrame(this,0);\napi.setObjectVelocity(this,0,0);"
    },
    {
      "id": 1,
      "name": "beacon for bomb",
      "update": "/** object sticks to another object **/\nlet x = this.x, y = this.y;\napi.getObjects('w').forEach(o => {\n    if(o.type.id===WID_0) {\n        this.x=o.x, this.y=o.y; // bomb not planted\n        api.setObjectFrame(this,0);\n    }\n    if(o.type.id===WID_7) {\n        this.x=o.x, this.y=o.y; // bomb planted\n        api.setObjectFrame(this,1);\n    }\n    else return;\n});"
    },
    {
      "id": 2,
      "name": "bomb counter",
      "update": "/** spawn animated object **/\nlet x = this.x, y = this.y;\nlet duration = 60;\nif(tick%duration) return;\napi.playSound(SNDID_40);\nlet messages = [\"61\",\"60\",\"59\",\"58\",\"57\",\"56\",\"55\",\"54\",\"53\",\"52\",\"51\",\"50\",\n\"49\",\"48\",\"47\",\"46\",\"45\",\"44\",\"43\",\"42\",\"41\",\"40\",\"39\",\"38\",\"37\",\"36\",\"35\",\n\"34\",\"33\",\"32\",\"31\",\"30\",\"29\",\"28\",\"27\",\"26\",\"25\",\"24\",\"23\",\"22\",\"21\",\"20\",\n\"19\",\"18\",\"17\",\"16\",\"15\",\"14\",\"13\",\"12\",\"11\",\"10\",\"9\",\"8\",\"7\",\"6\",\"5\",\"4\",\"3\",\"2\",\"1\"];\nif(++this.data==messages.length) this.data=0;\nlet o = api.createObject({\n    w: WID_5, \n    speed:0, angle:0,\n    x: this.x, y: this.y-10\n});\napi.unpack(o, 'iiS', [\n    duration*2+(tick%1000),\n    1, // letter-spacing\n    messages[this.data] // line of text\n]);"
    },
    {
      "id": 3,
      "name": "spawn bomb timer",
      "update": "/** spawn a floating char above the owner **/\n[duration, space, text] = api.unpack(this,'iiS',[0,1,'default text']);\nif(duration<0) return api.killObject(this);\nlet owner = api.getOwner(this);\nlet widths = {':':1,';':1,l:1,i:1,w:5,m:5};\nlet x=0;\nfor(let i=0;i<text.length;i++){\n    let C = text.charAt(i);\n    let c = text.charCodeAt(i);\n    if(c<32 || c>126) continue; // char not in sprites\n    if(C==':' || C==';') x+=1;\n    let o = api.createObject({\n        w: WID_6, data: c-32,\n        owner: owner ? owner.id : -1, parent:this,\n        speed:0, angle:0, x:this.x+x, y:this.y\n    });\n    if(C===' ') x+=2;\n    else if(widths[C]) x+=widths[C];\n    else if(c>=97) x+=3;\n    else x+=4;\n    x+=space;\n    // api.setObjectLife(o,duration);\n    \n}\nduration = -1; // force kill this object\napi.pack(this,'iiS',[duration,space,text]);"
    },
    {
      "id": 4,
      "name": "bomb timer chars",
      "update": "/** change frame of floating char **/\napi.setObjectFrame(this,this.data);"
    },
    {
      "id": 5,
      "name": "zone",
      "update": "/** object works differently depending on which team the worm is **/\n[d, wait, bhid] = api.unpack(this, 'iii', [0, 0, -1]);\nconst PLANTING_ZONE = WID_2;\nconst RELOCATION_ZONE = WID_3;\nconst BOMB_COUNTER = WID_4;\nconst BOMB = WID_0;\nconst BOMB2 = WID_7;\nconst BEACON = WID_1;\nconst getFrameFor = (d) => { // change frame of a bomb when planting\n    if (d <= 0) return 0;\n    if (d > 0 && d < 480) return 2;\n    if (d >= 480 && d < 960) return 3;\n    if (d >= 960 && d < 1440) return 4;\n    if (d >= 1440 && d < 1920) return 5;\n    if (d >= 1920 && d < 2400) return 6;\n    if (d >= 2400 && d < 2880) return 7;\n}; // timers are 8x faster because repeat property is set to 8\nconst timer = (d) => { // counter displayed when planting the bomb\n    if (d > 0 && d < 480) return 6;\n    if (d >= 480 && d < 960) return 5;\n    if (d >= 960 && d < 1440) return 4;\n    if (d >= 1440 && d < 1920) return 3;\n    if (d >= 1920 && d < 2400) return 2;\n    if (d >= 2400 && d < 2880) return 1;\n}; // timers are 8x faster because repeat property is set to 8\nconst showMsg = (msg, color, duration) => {\n    api.getPlayers().forEach(p => {\n        api.showOverlayMessage(p.id, msg, color, duration);\n    });\n};\nlet x = this.x, y = this.y;\nconst dist = (p) => (p.x - x) * (p.x - x) + (p.y - y) * (p.y - y);\nlet isBombHolderInZone = false;\napi.getObjects('w').forEach(o => {\n    if (o.type.id !== BOMB) return;\n    let ow = api.getOwner(o);\n    if (!ow) { \n        wait = -1;\n        api.setObjectFrame(o, 0);\n        return;\n    }\n    if (dist(ow) < 300) {\n        isBombHolderInZone = true;\n        bhid = ow.id;\n        wait++;\n        showMsg('Planting the bomb... ' + timer(wait), \"#FFA500\", 0.05);\n        api.setObjectFrame(o, getFrameFor(wait));\n            if (wait < 2880) {\n                api.getObjects('w').forEach(o => {\n                    let ow2 = api.getOwner(o);\n                    if(o.type.id===BOMB) return;\n                    if(o.type.id===PLANTING_ZONE) return;\n                    if(o.type.id===RELOCATION_ZONE) return;\n                    if(o.type.id===BEACON) return;\n                    if(ow && ow2 && ow.id===ow2.id) api.removeObject(o);\n                });\n            }\n        }\n        if (wait === 2880) {\n            api.removeObject(o);\n            api.playSound(SNDID_33);\n            showMsg('The bomb has been planted!', \"#00FF00\", 0.05);\n            api.createObject({\n                w: BOMB_COUNTER, // bomb counter\n                speed: 0,\n                x: this.x - 4, y: this.y - 4,\n                parent: this\n                });\n            api.createObject({\n                w: BOMB2, // bomb stage2\n                speed: 0,\n                x: this.x, y: this.y-2,\n                parent: this\n                });\n            }\n    });\nif (!isBombHolderInZone && bhid>=0) {\n    let bombHolder = api.getPlayer(bhid);\n    if (!bombHolder || dist(bombHolder)>=300) {\n        wait = -1;\n        api.getObjects('w').forEach(o => {\n          if (o.type.id !== BOMB) return;\n          let ow = api.getOwner(o);\n          if (!ow) return;\n          if (ow.id===bhid) {api.setObjectFrame(o, 0);}\n        });\n        bhid=-1;\n    }\n}\napi.pack(this, 'iii', [d, wait, bhid]); // save data changes"
    },
    {
      "id": 6,
      "name": "bomb stage2",
      "update": "/** object works differently depending on which team the worm is **/\n[gid, d] = api.unpack(this, 'ii', [-1, 0]);\nconst PLANTING_ZONE = WID_2;\nconst RELOCATION_ZONE = WID_3;\nconst BOMB_COUNTER = WID_4;\nconst SPAWN_FLOATING_CHAR = WID_5;\nconst FLOATING_CHAR = WID_6;\nconst getFrameFor = (d) => { // change frame of a bomb when defusing\n    if (d < 60) return 1;\n    if (d >= 60 && d < 120) return 2;\n    if (d >= 120 && d < 180) return 3;\n    if (d >= 180 && d < 240) return 4;\n    if (d >= 240 && d < 300) return 5;\n    if (d >= 300 && d < 360) return 6;\n};\nconst timer = (d) => { // counter displayed when defusing the bomb\n    if (d < 60) return 6;\n    if (d >= 60 && d < 120) return 5;\n    if (d >= 120 && d < 180) return 4;\n    if (d >= 180 && d < 240) return 3;\n    if (d >= 240 && d < 300) return 2;\n    if (d >= 300 && d < 360) return 1;\n};\nconst endGame = () => {\n    api.getObjects('w').forEach(o => {\n        if (o.type.id==RELOCATION_ZONE) api.killObject(o);\n    });\n};\nconst removeObjects = (ids) => {\n    api.getObjects('w').forEach(o => {\n        if (ids.includes(o.type.id)) api.removeObject(o);\n    });\n};\nconst showMsg = (msg, color, duration) => {\n    api.getPlayers().forEach(p => {\n        api.showOverlayMessage(p.id, msg, color, duration);\n    });\n};\nlet g = api.getPlayer(gid);\napi.setObjectFrame(this, 0);\nlet x = this.x, y = this.y;\nif (gid > -1 && !g) {d = -1; gid = -1;} // bomb defuser is dead, reset counters\nif (!g) {\n    api.getPlayers().forEach(p => {                    \n        if (api.isTeam() && p.team == 2) return;\n        let dist = (p.x - x) * (p.x - x) + (p.y - y) * (p.y - y);\n        if (dist < 300) {\n            g = p;\n            gid = p.id;\n            }\n        });\n    }\nif (g) {\n    let dist = (g.x - x) * (g.x - x) + (g.y - y) * (g.y - y);\n    if(dist >= 300) {d = -1; g = null; gid = -1;} // standing too far, reset counters\n    if(dist < 300) {\n        d++;\n        api.setObjectFrame(this, getFrameFor(d));\n        if (d < 360) {\n            showMsg('Defusing the bomb... ' + timer(d), \"#FFA500\", 0.05);\n            api.getObjects('w').forEach(o => {\n                if (o == this) return;\n                if (o.type.id === PLANTING_ZONE) return; // planting zone\n                if (o.type.id === RELOCATION_ZONE) return; // bomb relocation zone\n                if (o.type.id === BOMB_COUNTER) return; // bomb counter\n                if (o.type.id === SPAWN_FLOATING_CHAR) return; // spawn floating char\n                if (o.type.id === FLOATING_CHAR) return; // floating char\n                let ow = api.getOwner(o);\n                if (ow && ow.id == g.id) api.removeObject(o);\n            });\n        }\n    }\n    if (d === 360) {\n        showMsg('Bomb defused, team Alpha wins!', \"#FF0000\", 5);\n        api.removeObject(this);\n        endGame();\n        api.playSound(SNDID_42);\n        api.createBlood(1, x, y, 0, 0, NID_7); // dismantle sound & visual effect           \n        removeObjects([BOMB_COUNTER, SPAWN_FLOATING_CHAR, FLOATING_CHAR]);\n        }\n    }\nif (life === 3420) {\n    api.playSound(SNDID_39);\n    showMsg('Warning, the bomb will soon explode!', \"#FF8C00\", 3);\n}\nif (life === 3600) {\n    api.killObject(this);\n    api.playSound(SNDID_29);\n    api.createBlood(25, x, y, 0, 0, NID_6, this); // bomb explosion\n    api.getPlayers().forEach(p => {\n        api.showOverlayMessage(p.id, 'Bomb not defused, team Bravo wins!', \"#FF0000\", 5);\n        if (api.isTeam() && p.team == 1) api.hit(this,p.id,100);\n        });\n    endGame();\n    removeObjects([BOMB_COUNTER, SPAWN_FLOATING_CHAR, FLOATING_CHAR]);\n}\napi.pack(this, 'ii', [gid, d]); // save data changes"
    }
  ],
  "colorAnim":
  [
  ],
  "textSpritesStartIdx": "",
  "crossHairSprite": "",
  "name": "$DEFUSE THE B",
  "author": "roo & dsds",
  "version": ""
}