{
  "weapons": [],
  "wObjects":
  [
    {
      // wid0
      "detectDistance": 0,
      "blowAway": 0,
      "gravity": 0,
      "exploSound": -1,
      "addSpeed": 0,
      "distribution": 0,
      "multSpeed": 1,
      "createOnExp": -1,
      "dirtEffect": -1,
      "wormExplode": false,
      "explGround": false,
      "wormCollide": false,
      "collideWithObjects": false,
      "affectByExplosions": false,
      "bounce": -1,
      "bounceFriction": 0,
      "timeToExplo": 0,
      "timeToExploV": 0,
      "hitDamage": 0,
      "bloodOnHit": 0,
      "startFrame": -1,
      "numFrames": 0,
      "loopAnim": false,
      "shotType": 0,
      "repeat": 1,
      "colorBullets": 0,
      "splinterAmount": 0,
      "splinterColour": 0,
      "splinterType": -1,
      "splinterScatter": 0,
      "objTrailType": -1,
      "objTrailDelay": 0,
      "partTrailType": 0,
      "partTrailObj": -1,
      "partTrailDelay": 0,
      "speed": 0,
      "immutable": true,
      "id": 0,
      "behavior": 0,
      "name": "renewable_block_rails"
    },
    {
      // wid1
      "detectDistance": 0,
      "blowAway": 0,
      "gravity": 0,
      "exploSound": -1,
      "addSpeed": 0,
      "distribution": 0,
      "multSpeed": 1,
      "createOnExp": -1,
      "dirtEffect": -1,
      "wormExplode": false,
      "explGround": false,
      "wormCollide": false,
      "collideWithObjects": false,
      "affectByExplosions": false,
      "bounce": -1,
      "bounceFriction": 0,
      "timeToExplo": 0,
      "timeToExploV": 0,
      "hitDamage": 0,
      "bloodOnHit": 0,
      "startFrame": -1,
      "numFrames": 0,
      "loopAnim": false,
      "shotType": 0,
      "repeat": 1,
      "colorBullets": 0,
      "splinterAmount": 0,
      "splinterColour": 0,
      "splinterType": -1,
      "splinterScatter": 0,
      "objTrailType": -1,
      "objTrailDelay": 0,
      "partTrailType": 0,
      "partTrailObj": -1,
      "partTrailDelay": 0,
      "speed": 0,
      "immutable": true,
      "id": 1,
      "behavior": 1,
      "name": "semi_solid_block_rails"
    },
    {
      // wid2
      "detectDistance": 0,
      "blowAway": 0,
      "gravity": 0,
      "exploSound": -1,
      "addSpeed": 0,
      "distribution": 0,
      "multSpeed": 1,
      "createOnExp": -1,
      "dirtEffect": -1,
      "wormExplode": false,
      "explGround": false,
      "wormCollide": false,
      "collideWithObjects": false,
      "affectByExplosions": false,
      "bounce": -1,
      "bounceFriction": 0,
      "timeToExplo": 0,
      "timeToExploV": 0,
      "hitDamage": 0,
      "bloodOnHit": 0,
      "startFrame": -1,
      "numFrames": 0,
      "loopAnim": false,
      "shotType": 0,
      "repeat": 1,
      "colorBullets": 0,
      "splinterAmount": 0,
      "splinterColour": 0,
      "splinterType": -1,
      "splinterScatter": 0,
      "objTrailType": -1,
      "objTrailDelay": 0,
      "partTrailType": 0,
      "partTrailObj": 2,
      "partTrailDelay": 605,
      "speed": 0,
      "immutable": true,
      "id": 2,
      "name": "disappearing_dirt_rectangle"
    },
    {
      // wid3
      "detectDistance": 0,
      "blowAway": 0,
      "gravity": 0,
      "exploSound": -1,
      "addSpeed": 0,
      "distribution": 0,
      "multSpeed": 1,
      "createOnExp": -1,
      "dirtEffect": -1,
      "wormExplode": false,
      "explGround": false,
      "wormCollide": false,
      "collideWithObjects": false,
      "affectByExplosions": false,
      "bounce": -1,
      "bounceFriction": 0,
      "timeToExplo": 0,
      "timeToExploV": 0,
      "hitDamage": 0,
      "bloodOnHit": 0,
      "startFrame": -1,
      "numFrames": 0,
      "loopAnim": false,
      "shotType": 0,
      "repeat": 1,
      "colorBullets": 0,
      "splinterAmount": 0,
      "splinterColour": 0,
      "splinterType": -1,
      "splinterScatter": 0,
      "objTrailType": -1,
      "objTrailDelay": 0,
      "partTrailType": 0,
      "partTrailObj": -1,
      "partTrailDelay": 0,
      "speed": 0,
      "immutable": true,
      "id": 3,
      "behavior": 2,
      "name": "renewable_block_normal"
    },
    {
      // wid4
      "detectDistance": 0,
      "blowAway": 0,
      "gravity": 0,
      "exploSound": -1,
      "addSpeed": 0,
      "distribution": 0,
      "multSpeed": 1,
      "createOnExp": -1,
      "dirtEffect": -1,
      "wormExplode": false,
      "explGround": false,
      "wormCollide": false,
      "collideWithObjects": false,
      "affectByExplosions": false,
      "bounce": -1,
      "bounceFriction": 0,
      "timeToExplo": 0,
      "timeToExploV": 0,
      "hitDamage": 0,
      "bloodOnHit": 0,
      "startFrame": -1,
      "numFrames": 0,
      "loopAnim": false,
      "shotType": 0,
      "repeat": 1,
      "colorBullets": 0,
      "splinterAmount": 0,
      "splinterColour": 0,
      "splinterType": -1,
      "splinterScatter": 0,
      "objTrailType": -1,
      "objTrailDelay": 0,
      "partTrailType": 0,
      "partTrailObj": -1,
      "partTrailDelay": 0,
      "speed": 0,
      "immutable": true,
      "id": 4,
      "behavior": 3,
      "name": "semi_solid_block"
    },
    {
      // wid5
      "detectDistance": 0,
      "blowAway": 0,
      "gravity": 0,
      "exploSound": -1,
      "addSpeed": 0,
      "distribution": 0,
      "multSpeed": 1,
      "createOnExp": -1,
      "dirtEffect": -1,
      "wormExplode": false,
      "explGround": false,
      "wormCollide": false,
      "collideWithObjects": false,
      "affectByExplosions": false,
      "bounce": -1,
      "bounceFriction": 0,
      "timeToExplo": 0,
      "timeToExploV": 0,
      "hitDamage": 0,
      "bloodOnHit": 0,
      "startFrame": -1,
      "numFrames": 0,
      "loopAnim": false,
      "shotType": 0,
      "repeat": 1,
      "colorBullets": 0,
      "splinterAmount": 0,
      "splinterColour": 0,
      "splinterType": -1,
      "splinterScatter": 0,
      "objTrailType": 0,
      "objTrailDelay": 1200,
      "partTrailType": 0,
      "partTrailObj": -1,
      "partTrailDelay": 0,
      "speed": 0,
      "immutable": true,
      "id": 0,
      "name": "renewable_block_standard"
    },
  ],
  "nObjects":
  [
    {
      // nid0
      "detectDistance": 0,
      "gravity": 0,
      "speed": 0,
      "speedV": 0,
      "distribution": 0,
      "blowAway": 0,
      "bounce": 0,
      "hitDamage": 0,
      "wormExplode": false,
      "explGround": false,
      "wormDestroy": false,
      "bloodOnHit": 0,
      "startFrame": 0,
      "numFrames": 0,
      "drawOnMap": false,
      "colorBullets": 0,
      "createOnExp": -1,
      "affectByExplosions": false,
      "dirtEffect": 0,
      "splinterAmount": 0,
      "splinterColour": 0,
      "splinterType": -1,
      "bloodTrail": false,
      "bloodTrailDelay": 0,
      "leaveObj": -1,
      "leaveObjDelay": 0,
      "timeToExplo": 2,
      "timeToExploV": 0,
      "immutable": true,
      "teamImmunity": 0,
      "id": 0,
      "name": "nid 0"
    },
    {
      // nid1
      "detectDistance": 0,
      "gravity": 0,
      "speed": 0,
      "speedV": 0,
      "distribution": 0,
      "blowAway": 0,
      "bounce": 0,
      "hitDamage": 0,
      "wormExplode": false,
      "explGround": false,
      "wormDestroy": false,
      "bloodOnHit": 0,
      "startFrame": 0,
      "numFrames": 0,
      "drawOnMap": false,
      "colorBullets": 0,
      "createOnExp": -1,
      "affectByExplosions": false,
      "dirtEffect": 1,
      "splinterAmount": 0,
      "splinterColour": 0,
      "splinterType": -1,
      "bloodTrail": false,
      "bloodTrailDelay": 0,
      "leaveObj": -1,
      "leaveObjDelay": 0,
      "timeToExplo": 2,
      "timeToExploV": 0,
      "immutable": true,
      "teamImmunity": 0,
      "id": 1,
      "name": "nid 1"
    },
    {
      // nid2
      "detectDistance": 0,
      "gravity": 0,
      "speed": 0,
      "speedV": 0,
      "distribution": 0,
      "blowAway": 0,
      "bounce": 0,
      "hitDamage": 0,
      "wormExplode": false,
      "explGround": false,
      "wormDestroy": false,
      "bloodOnHit": 0,
      "startFrame": 0,
      "numFrames": 0,
      "drawOnMap": false,
      "colorBullets": 0,
      "createOnExp": -1,
      "affectByExplosions": false,
      "dirtEffect": 2,
      "splinterAmount": 1,
      "splinterColour": 0,
      "splinterType": 3,
      "bloodTrail": false,
      "bloodTrailDelay": 0,
      "leaveObj": -1,
      "leaveObjDelay": 0,
      "timeToExplo": 300,
      "timeToExploV": 0,
      "immutable": true,
      "teamImmunity": 0,
      "id": 2,
      "name": "nid 2"
    },
    {
      // nid3
      "detectDistance": 0,
      "gravity": 0,
      "speed": 0,
      "speedV": 0,
      "distribution": 0,
      "blowAway": 0,
      "bounce": 0,
      "hitDamage": 0,
      "wormExplode": false,
      "explGround": false,
      "wormDestroy": false,
      "bloodOnHit": 0,
      "startFrame": 0,
      "numFrames": 0,
      "drawOnMap": false,
      "colorBullets": 0,
      "createOnExp": -1,
      "affectByExplosions": false,
      "dirtEffect": 3,
      "splinterAmount": 1,
      "splinterColour": 0,
      "splinterType": 2,
      "bloodTrail": false,
      "bloodTrailDelay": 0,
      "leaveObj": -1,
      "leaveObjDelay": 0,
      "timeToExplo": 300,
      "timeToExploV": 0,
      "immutable": true,
      "teamImmunity": 0,
      "id": 3,
      "name": "nid 3"
    },
  ],
  "sObjects":
  [
    {
      // sid0
      "startSound": -1,
      "numSounds": 0,
      "animDelay": 1,
      "startFrame": 10,
      "numFrames": 0,
      "detectRange": 0,
      "damage": 0,
      "blowAway": 0,
      "shadow": false,
      "shake": 0,
      "flash": 0,
      "dirtEffect": 0,
      "id": 0,
      "name": "sid 0"
    },
  ],
  "constants": {},
  "textures":
  [
    {
      "nDrawBack": false,
      "mFrame": 0,
      "sFrame": 1,
      "rFrame": 1,
      "id": 0,
      "name": "tid 0"
    },
    {
      "nDrawBack": false,
      "mFrame": 0,
      "sFrame": 2,
      "rFrame": 1,
      "id": 1,
      "name": "tid 1"
    },
    {
      "nDrawBack": false,
      "mFrame": 7,
      "sFrame": 5,
      "rFrame": 1,
      "id": 2,
      "name": "tid 2"
    },
    {
      "nDrawBack": true,
      "mFrame": 7,
      "sFrame": 3,
      "rFrame": 1,
      "id": 3,
      "name": "tid 3"
    },
  ],
  "behaviors": 
  [
    {
      "id": 0,
      "name": "dirt block for rails",
      "update": "/** creates specified nObject on a collision with railgun trail or on a worm touch **/\r\n[wait,regenerate] = api.unpack(this,'ii',[0,-1]);\r\nif ((tick%3)!==0) return;\r\nif (wait===0) {\r\n    let x = this.x, y = this.y;\r\n    const range = 60;\r\n    const players= api.getPlayers();\r\n    for (const p of players) {\r\n        let dist = (p.x - x) * (p.x - x) + (p.y - y) * (p.y - y);\r\n        if(dist < 60) {\r\n          regenerate=2;\r\n          break;\r\n        }\r\n    }\r\n    if (regenerate===0) {\r\n    const nobjects = api.getObjects('n');\r\n    for (const o of nobjects) {\r\n        if (o.type.leaveObjDelay===2 && ((o.x-x)*(o.x-x)+(o.y-y)*(o.y-y)>range)) {\r\n            regenerate=2;\r\n            break;\r\n        }\r\n    }\r\n   }\r\n}\r\nif(regenerate>0) wait++;\r\nif(regenerate===-1 || wait===400){\r\n    api.createBlood(1, this.x, this.y, 0, 0, NID_0);\r\n    wait=0; regenerate=0;\r\n}\r\napi.pack(this,'ii',[wait,regenerate]); // save data changes"
    },
    {
      "id": 1,
      "name": "semi solid block for rails",
      "update": "/** creates specified nObject on a collision with railgun trail or on a worm touch **/\n[wait,regenerate] = api.unpack(this,'ii',[0,-1]);\nlet x = this.x, y = this.y;\nlet range = 60;\nif(wait===0) api.createBlood(1, this.x, this.y, 0, 0, NID_1);\napi.getPlayers().forEach(p=>{\n    let dist = (p.x - x) * (p.x - x) + (p.y - y) * (p.y - y);\n    if(dist < 60) regenerate=2;\n});\nif(tick%1===0) api.getObjects('n').forEach(o=>{\n    if((o.x-x)*(o.x-x)+(o.y-y)*(o.y-y)>range) return;\n    if(o.type.leaveObjDelay===2) regenerate=2;\n});\nif(regenerate>0){\n    wait++;\n}\nif(wait===1200){\n    api.createBlood(1, this.x, this.y, 0, 0, NID_1);\n    wait=0; regenerate=-1;\n    }\napi.pack(this,'ii',[wait,regenerate]); // save data changes"
    },
    {
      "id": 2,
      "name": "dirt block standard",
      "update": "/** creates specified nObject on a collision with any object with dirtEffect > -1 or on a worm touch **/\n[wait,regenerate] = api.unpack(this,'ii',[0,-1]);\nif ((tick%3)!==0) return;\nif (wait===0) {\n    let x = this.x, y = this.y;\n    const range = 60;\n    const players= api.getPlayers();\n    for (const p of players) {\n        let dist = (p.x - x) * (p.x - x) + (p.y - y) * (p.y - y);\n        if(dist < 60) {\n          regenerate=2;\n          break;\n        }\n    }\n    if (regenerate===0) {\n    const nobjects = api.getObjects('n');\n    for (const o of nobjects) {\n        if (o.type.dirtEffect>-1 && ((o.x-x)*(o.x-x)+(o.y-y)*(o.y-y)>range)) {\n            regenerate=2;\n            break;\n        }\n    }\n   }\n}\nif(regenerate>0) wait++;\nif(regenerate===-1 || wait===400){\n    api.createBlood(1, this.x, this.y, 0, 0, NID_0);\n    wait=0; regenerate=0;\n}\napi.pack(this,'ii',[wait,regenerate]); // save data changes"
    },
    {
      "id": 3,
      "name": "semi solid block standard",
      "update": "/** creates specified nObject on a collision with any object with dirtEffect > -1 or on a worm touch **/\n[wait,regenerate] = api.unpack(this,'ii',[0,-1]);\nlet x = this.x, y = this.y;\nlet range = 60;\nif(wait===0) api.createBlood(1, this.x, this.y, 0, 0, NID_1);\napi.getPlayers().forEach(p=>{\n    let dist = (p.x - x) * (p.x - x) + (p.y - y) * (p.y - y);\n    if(dist < 60) regenerate=2;\n});\nif(tick%1===0) api.getObjects().forEach(o=>{\n    if((o.x-x)*(o.x-x)+(o.y-y)*(o.y-y)>range) return;\n    if(o.type.dirtEffect>-1) regenerate=2;\n});\nif(regenerate>0){\n    wait++;\n}\nif(wait===1200){\n    api.createBlood(1, this.x, this.y, 0, 0, NID_1);\n    wait=0; regenerate=-1;\n    }\napi.pack(this,'ii',[wait,regenerate]); // save data changes"
    }
  ],
  "colorAnim": [],
  "textSpritesStartIdx": "",
  "crossHairSprite": "",
  "name": "$dirt blocks",
  "author": "roo",
  "version": "0.25"
}